{
  "_embedded" : {
    "facility" : [ {
      "createdDate" : "2017-11-06T11:55:24.565+0000",
      "lastModifiedDate" : "2017-11-06T11:55:24.565+0000",
      "uuid" : "4d601b11-f7b9-4825-a87e-378979ae0c93",
      "inactive" : false,
      "name" : "Una (Pvt. Institutions)",
      "_links" : {
        "self" : {
          "href" : "/40156"
        },
        "facilityTypeUUID" : {
          "href" : "6d8dd7dd-6210-4cbc-a205-628e77eb0aa5"
        },
        "districtUUID" : {
          "href" : "0a351eae-97cd-4e52-be45-ebea7a46e434"
        },
        "facilityType" : {
          "href" : "/40156/facilityType"
        },
        "district" : {
          "href" : "/40156/district"
        }
      }
    }, {
      "createdDate" : "2017-11-06T11:55:24.659+0000",
      "lastModifiedDate" : "2017-11-06T11:55:24.659+0000",
      "uuid" : "1dbc427b-a84b-4d93-838e-c6211e514619",
      "inactive" : false,
      "name" : "ESI Mehatpur ",
      "_links" : {
        "self" : {
          "href" : "/40157"
        },
        "facilityTypeUUID" : {
          "href" : "ceff9b6e-c123-465b-a6da-2ed9d41c1921"
        },
        "districtUUID" : {
          "href" : "0a351eae-97cd-4e52-be45-ebea7a46e434"
        },
        "facilityType" : {
          "href" : "/40157/facilityType"
        },
        "district" : {
          "href" : "/40157/district"
        }
      }
    }, {
      "createdDate" : "2017-11-06T11:55:24.749+0000",
      "lastModifiedDate" : "2017-11-06T11:55:24.749+0000",
      "uuid" : "cd2c63d9-4e01-4547-9a4a-b38f7f76a29d",
      "inactive" : false,
      "name" : "Dharamshala Mahanta PHC",
      "_links" : {
        "self" : {
          "href" : "/40158"
        },
        "facilityTypeUUID" : {
          "href" : "ceff9b6e-c123-465b-a6da-2ed9d41c1921"
        },
        "districtUUID" : {
          "href" : "0a351eae-97cd-4e52-be45-ebea7a46e434"
        },
        "facilityType" : {
          "href" : "/40158/facilityType"
        },
        "district" : {
          "href" : "/40158/district"
        }
      }
    }, {
      "createdDate" : "2017-11-06T11:55:24.840+0000",
      "lastModifiedDate" : "2017-11-06T11:55:24.840+0000",
      "uuid" : "a3fa1ccd-f74e-4342-8d11-e74bd0b1d49a",
      "inactive" : false,
      "name" : "ThanaKalan PHC",
      "_links" : {
        "self" : {
          "href" : "/40159"
        },
        "facilityTypeUUID" : {
          "href" : "ceff9b6e-c123-465b-a6da-2ed9d41c1921"
        },
        "districtUUID" : {
          "href" : "0a351eae-97cd-4e52-be45-ebea7a46e434"
        },
        "facilityType" : {
          "href" : "/40159/facilityType"
        },
        "district" : {
          "href" : "/40159/district"
        }
      }
    }, {
      "createdDate" : "2017-11-06T11:55:24.928+0000",
      "lastModifiedDate" : "2017-11-06T11:55:24.928+0000",
      "uuid" : "f9e8de51-b254-49c3-be3d-a8958a6f87f3",
      "inactive" : false,
      "name" : "Bhadsali PHC",
      "_links" : {
        "self" : {
          "href" : "/40160"
        },
        "facilityTypeUUID" : {
          "href" : "ceff9b6e-c123-465b-a6da-2ed9d41c1921"
        },
        "districtUUID" : {
          "href" : "0a351eae-97cd-4e52-be45-ebea7a46e434"
        },
        "facilityType" : {
          "href" : "/40160/facilityType"
        },
        "district" : {
          "href" : "/40160/district"
        }
      }
    }, {
      "createdDate" : "2017-11-06T11:55:25.021+0000",
      "lastModifiedDate" : "2017-11-06T11:55:25.021+0000",
      "uuid" : "cebd30fa-ec3a-4975-9ba1-3e453042b54b",
      "inactive" : false,
      "name" : "Una RH",
      "_links" : {
        "self" : {
          "href" : "/40161"
        },
        "facilityTypeUUID" : {
          "href" : "f28c99d3-ba72-4a36-925a-cfa0c3bb6a63"
        },
        "districtUUID" : {
          "href" : "0a351eae-97cd-4e52-be45-ebea7a46e434"
        },
        "facilityType" : {
          "href" : "/40161/facilityType"
        },
        "district" : {
          "href" : "/40161/district"
        }
      }
    }, {
      "createdDate" : "2017-11-06T11:55:25.112+0000",
      "lastModifiedDate" : "2017-11-06T11:55:25.112+0000",
      "uuid" : "ed632dd0-5f2e-4d78-8edf-e46904c9e56d",
      "inactive" : false,
      "name" : "Badehra PHC",
      "_links" : {
        "self" : {
          "href" : "/40162"
        },
        "facilityTypeUUID" : {
          "href" : "ceff9b6e-c123-465b-a6da-2ed9d41c1921"
        },
        "districtUUID" : {
          "href" : "0a351eae-97cd-4e52-be45-ebea7a46e434"
        },
        "facilityType" : {
          "href" : "/40162/facilityType"
        },
        "district" : {
          "href" : "/40162/district"
        }
      }
    }, {
      "createdDate" : "2017-11-06T11:55:25.200+0000",
      "lastModifiedDate" : "2017-11-06T11:55:25.200+0000",
      "uuid" : "43d5ca86-dcd3-4c5c-94b7-495afff61b40",
      "inactive" : false,
      "name" : "Gagret CHC",
      "_links" : {
        "self" : {
          "href" : "/40163"
        },
        "facilityTypeUUID" : {
          "href" : "c24f8e2e-8d5f-4653-9a7b-0072ed416603"
        },
        "districtUUID" : {
          "href" : "0a351eae-97cd-4e52-be45-ebea7a46e434"
        },
        "facilityType" : {
          "href" : "/40163/facilityType"
        },
        "district" : {
          "href" : "/40163/district"
        }
      }
    }, {
      "createdDate" : "2017-11-06T11:55:25.288+0000",
      "lastModifiedDate" : "2017-11-06T11:55:25.288+0000",
      "uuid" : "8bc23432-2e19-438a-8f3a-af619b4301ed",
      "inactive" : false,
      "name" : "Marwari PHC",
      "_links" : {
        "self" : {
          "href" : "/40164"
        },
        "facilityTypeUUID" : {
          "href" : "ceff9b6e-c123-465b-a6da-2ed9d41c1921"
        },
        "districtUUID" : {
          "href" : "0a351eae-97cd-4e52-be45-ebea7a46e434"
        },
        "facilityType" : {
          "href" : "/40164/facilityType"
        },
        "district" : {
          "href" : "/40164/district"
        }
      }
    }, {
      "createdDate" : "2017-11-06T11:55:25.376+0000",
      "lastModifiedDate" : "2017-11-06T11:55:25.376+0000",
      "uuid" : "f787170b-e0af-4621-a901-89f538235efe",
      "inactive" : false,
      "name" : "Chintpurni CH",
      "_links" : {
        "self" : {
          "href" : "/40165"
        },
        "facilityTypeUUID" : {
          "href" : "6d8dd7dd-6210-4cbc-a205-628e77eb0aa5"
        },
        "districtUUID" : {
          "href" : "0a351eae-97cd-4e52-be45-ebea7a46e434"
        },
        "facilityType" : {
          "href" : "/40165/facilityType"
        },
        "district" : {
          "href" : "/40165/district"
        }
      }
    }, {
      "createdDate" : "2017-11-06T11:55:25.467+0000",
      "lastModifiedDate" : "2017-11-06T11:55:25.467+0000",
      "uuid" : "5a69a7aa-cdd8-45fc-a1d5-ec9e37aa3114",
      "inactive" : false,
      "name" : "Amlehar PHC",
      "_links" : {
        "self" : {
          "href" : "/40166"
        },
        "facilityTypeUUID" : {
          "href" : "ceff9b6e-c123-465b-a6da-2ed9d41c1921"
        },
        "districtUUID" : {
          "href" : "0a351eae-97cd-4e52-be45-ebea7a46e434"
        },
        "facilityType" : {
          "href" : "/40166/facilityType"
        },
        "district" : {
          "href" : "/40166/district"
        }
      }
    }, {
      "createdDate" : "2017-11-06T11:55:25.556+0000",
      "lastModifiedDate" : "2017-11-06T11:55:25.556+0000",
      "uuid" : "70e276fe-2b24-4761-a9f1-0ee23a5b4218",
      "inactive" : false,
      "name" : "Akrot PHC",
      "_links" : {
        "self" : {
          "href" : "/40167"
        },
        "facilityTypeUUID" : {
          "href" : "ceff9b6e-c123-465b-a6da-2ed9d41c1921"
        },
        "districtUUID" : {
          "href" : "0a351eae-97cd-4e52-be45-ebea7a46e434"
        },
        "facilityType" : {
          "href" : "/40167/facilityType"
        },
        "district" : {
          "href" : "/40167/district"
        }
      }
    }, {
      "createdDate" : "2017-11-06T11:55:25.650+0000",
      "lastModifiedDate" : "2017-11-06T11:55:25.650+0000",
      "uuid" : "f7c1fcee-d886-4b8b-a76e-47117c2fb0fb",
      "inactive" : false,
      "name" : "Bangana CHC",
      "_links" : {
        "self" : {
          "href" : "/40168"
        },
        "facilityTypeUUID" : {
          "href" : "c24f8e2e-8d5f-4653-9a7b-0072ed416603"
        },
        "districtUUID" : {
          "href" : "0a351eae-97cd-4e52-be45-ebea7a46e434"
        },
        "facilityType" : {
          "href" : "/40168/facilityType"
        },
        "district" : {
          "href" : "/40168/district"
        }
      }
    }, {
      "createdDate" : "2017-11-06T11:55:25.737+0000",
      "lastModifiedDate" : "2017-11-06T11:55:25.737+0000",
      "uuid" : "af4a6261-9292-472d-9dae-0b0179e04888",
      "inactive" : false,
      "name" : "Dhussara PHC",
      "_links" : {
        "self" : {
          "href" : "/40169"
        },
        "facilityTypeUUID" : {
          "href" : "ceff9b6e-c123-465b-a6da-2ed9d41c1921"
        },
        "districtUUID" : {
          "href" : "0a351eae-97cd-4e52-be45-ebea7a46e434"
        },
        "facilityType" : {
          "href" : "/40169/facilityType"
        },
        "district" : {
          "href" : "/40169/district"
        }
      }
    }, {
      "createdDate" : "2017-11-06T11:55:25.824+0000",
      "lastModifiedDate" : "2017-11-06T11:55:25.824+0000",
      "uuid" : "2a2b84a5-0125-40e4-a5f3-a866502a7b07",
      "inactive" : false,
      "name" : "Churru PHC",
      "_links" : {
        "self" : {
          "href" : "/40170"
        },
        "facilityTypeUUID" : {
          "href" : "ceff9b6e-c123-465b-a6da-2ed9d41c1921"
        },
        "districtUUID" : {
          "href" : "0a351eae-97cd-4e52-be45-ebea7a46e434"
        },
        "facilityType" : {
          "href" : "/40170/facilityType"
        },
        "district" : {
          "href" : "/40170/district"
        }
      }
    } ]
  },
  "_links" : {
    "first" : {
      "href" : "/search/lastModifiedByState?lastModifiedDate=1900-01-01T00:00:00.001Z&name=Himachal%20Pradesh&page=0&size=200"
    },
    "prev" : {
      "href" : "/search/lastModifiedByState?lastModifiedDate=1900-01-01T00:00:00.001Z&name=Himachal%20Pradesh&page=2&size=200"
    },
    "self" : {
      "href" : "/search/lastModifiedByState?lastModifiedDate=1900-01-01T00:00:00.001Z&size=200&page=3&name=Himachal%20Pradesh"
    },
    "last" : {
      "href" : "/search/lastModifiedByState?lastModifiedDate=1900-01-01T00:00:00.001Z&name=Himachal%20Pradesh&page=3&size=200"
    }
  },
  "page" : {
    "size" : 200,
    "totalElements" : 615,
    "totalPages" : 4,
    "number" : 3
  }
}