{
  "_embedded" : {
    "facility" : [ {
      "createdDate" : "2017-11-06T11:07:05.561+0000",
      "lastModifiedDate" : "2017-11-06T11:07:05.561+0000",
      "uuid" : "19caee77-115e-4edc-bb57-07c82b018144",
      "inactive" : false,
      "name" : "VANDSE",
      "_links" : {
        "self" : {
          "href" : "/18888"
        },
        "facilityTypeUUID" : {
          "href" : "ceff9b6e-c123-465b-a6da-2ed9d41c1921"
        },
        "districtUUID" : {
          "href" : "f158ebd9-bd03-4aac-8aa7-5355de63b89b"
        },
        "district" : {
          "href" : "/18888/district"
        },
        "facilityType" : {
          "href" : "/18888/facilityType"
        }
      }
    }, {
      "createdDate" : "2017-11-06T11:07:05.667+0000",
      "lastModifiedDate" : "2017-11-06T11:07:05.667+0000",
      "uuid" : "80658cc8-7167-48b4-b122-f96a05ae456c",
      "inactive" : false,
      "name" : "ALOOR",
      "_links" : {
        "self" : {
          "href" : "/18889"
        },
        "facilityTypeUUID" : {
          "href" : "ceff9b6e-c123-465b-a6da-2ed9d41c1921"
        },
        "districtUUID" : {
          "href" : "f158ebd9-bd03-4aac-8aa7-5355de63b89b"
        },
        "district" : {
          "href" : "/18889/district"
        },
        "facilityType" : {
          "href" : "/18889/facilityType"
        }
      }
    }, {
      "createdDate" : "2017-11-06T11:07:05.756+0000",
      "lastModifiedDate" : "2017-11-06T11:07:05.756+0000",
      "uuid" : "aa4446ad-1e4c-4a0a-a969-4ebcd6bfa952",
      "inactive" : false,
      "name" : "(FRU) KARKALA TALUK HOSPITAL",
      "_links" : {
        "self" : {
          "href" : "/18890"
        },
        "facilityTypeUUID" : {
          "href" : "6d8dd7dd-6210-4cbc-a205-628e77eb0aa5"
        },
        "districtUUID" : {
          "href" : "f158ebd9-bd03-4aac-8aa7-5355de63b89b"
        },
        "district" : {
          "href" : "/18890/district"
        },
        "facilityType" : {
          "href" : "/18890/facilityType"
        }
      }
    }, {
      "createdDate" : "2017-11-06T11:07:05.860+0000",
      "lastModifiedDate" : "2017-11-06T11:07:05.860+0000",
      "uuid" : "603b4617-ab1e-4768-8c57-cec92dad876c",
      "inactive" : false,
      "name" : "MANIPURA",
      "_links" : {
        "self" : {
          "href" : "/18891"
        },
        "facilityTypeUUID" : {
          "href" : "ceff9b6e-c123-465b-a6da-2ed9d41c1921"
        },
        "districtUUID" : {
          "href" : "f158ebd9-bd03-4aac-8aa7-5355de63b89b"
        },
        "district" : {
          "href" : "/18891/district"
        },
        "facilityType" : {
          "href" : "/18891/facilityType"
        }
      }
    }, {
      "createdDate" : "2017-11-06T11:07:05.953+0000",
      "lastModifiedDate" : "2017-11-06T11:07:05.953+0000",
      "uuid" : "38aa8304-6603-4357-8755-be3d7e2774ef",
      "inactive" : false,
      "name" : "SAIBRAKATTE",
      "_links" : {
        "self" : {
          "href" : "/18892"
        },
        "facilityTypeUUID" : {
          "href" : "ceff9b6e-c123-465b-a6da-2ed9d41c1921"
        },
        "districtUUID" : {
          "href" : "f158ebd9-bd03-4aac-8aa7-5355de63b89b"
        },
        "district" : {
          "href" : "/18892/district"
        },
        "facilityType" : {
          "href" : "/18892/facilityType"
        }
      }
    }, {
      "createdDate" : "2017-11-06T11:07:06.050+0000",
      "lastModifiedDate" : "2017-11-06T11:07:06.050+0000",
      "uuid" : "fa9ca3c0-636b-4389-bce3-ad71f151f1d8",
      "inactive" : false,
      "name" : "KOKKARNE",
      "_links" : {
        "self" : {
          "href" : "/18893"
        },
        "facilityTypeUUID" : {
          "href" : "ceff9b6e-c123-465b-a6da-2ed9d41c1921"
        },
        "districtUUID" : {
          "href" : "f158ebd9-bd03-4aac-8aa7-5355de63b89b"
        },
        "district" : {
          "href" : "/18893/district"
        },
        "facilityType" : {
          "href" : "/18893/facilityType"
        }
      }
    }, {
      "createdDate" : "2017-11-06T11:07:06.165+0000",
      "lastModifiedDate" : "2017-11-06T11:07:06.165+0000",
      "uuid" : "d2ae72e3-e7fc-4b92-8710-106e9a9a5ffc",
      "inactive" : false,
      "name" : "KANDLOR 24X7",
      "_links" : {
        "self" : {
          "href" : "/18894"
        },
        "facilityTypeUUID" : {
          "href" : "ceff9b6e-c123-465b-a6da-2ed9d41c1921"
        },
        "districtUUID" : {
          "href" : "f158ebd9-bd03-4aac-8aa7-5355de63b89b"
        },
        "district" : {
          "href" : "/18894/district"
        },
        "facilityType" : {
          "href" : "/18894/facilityType"
        }
      }
    }, {
      "createdDate" : "2017-11-06T11:07:06.256+0000",
      "lastModifiedDate" : "2017-11-06T11:07:06.256+0000",
      "uuid" : "75797f7a-6ff7-4583-9452-34210c581ad2",
      "inactive" : false,
      "name" : "PERNANKILA",
      "_links" : {
        "self" : {
          "href" : "/18895"
        },
        "facilityTypeUUID" : {
          "href" : "ceff9b6e-c123-465b-a6da-2ed9d41c1921"
        },
        "districtUUID" : {
          "href" : "f158ebd9-bd03-4aac-8aa7-5355de63b89b"
        },
        "district" : {
          "href" : "/18895/district"
        },
        "facilityType" : {
          "href" : "/18895/facilityType"
        }
      }
    }, {
      "createdDate" : "2017-11-06T11:07:06.541+0000",
      "lastModifiedDate" : "2017-11-06T11:07:06.541+0000",
      "uuid" : "3311f598-745f-443e-bf7e-ca1df25403a0",
      "inactive" : false,
      "name" : "PADUBIDRI (24X7)",
      "_links" : {
        "self" : {
          "href" : "/18896"
        },
        "facilityTypeUUID" : {
          "href" : "ceff9b6e-c123-465b-a6da-2ed9d41c1921"
        },
        "districtUUID" : {
          "href" : "f158ebd9-bd03-4aac-8aa7-5355de63b89b"
        },
        "district" : {
          "href" : "/18896/district"
        },
        "facilityType" : {
          "href" : "/18896/facilityType"
        }
      }
    }, {
      "createdDate" : "2017-11-06T11:07:06.631+0000",
      "lastModifiedDate" : "2017-11-06T11:07:06.631+0000",
      "uuid" : "c9adb783-b5e4-48a4-a36b-739a480c408b",
      "inactive" : false,
      "name" : "AJEKAR (24X7)",
      "_links" : {
        "self" : {
          "href" : "/18897"
        },
        "facilityTypeUUID" : {
          "href" : "ceff9b6e-c123-465b-a6da-2ed9d41c1921"
        },
        "districtUUID" : {
          "href" : "f158ebd9-bd03-4aac-8aa7-5355de63b89b"
        },
        "district" : {
          "href" : "/18897/district"
        },
        "facilityType" : {
          "href" : "/18897/facilityType"
        }
      }
    }, {
      "createdDate" : "2017-11-06T11:07:06.727+0000",
      "lastModifiedDate" : "2017-11-06T11:07:06.727+0000",
      "uuid" : "a6d2e6fe-5441-4143-9569-8e4c1ccda1a9",
      "inactive" : false,
      "name" : "HIREBETTUR",
      "_links" : {
        "self" : {
          "href" : "/18898"
        },
        "facilityTypeUUID" : {
          "href" : "ceff9b6e-c123-465b-a6da-2ed9d41c1921"
        },
        "districtUUID" : {
          "href" : "f158ebd9-bd03-4aac-8aa7-5355de63b89b"
        },
        "district" : {
          "href" : "/18898/district"
        },
        "facilityType" : {
          "href" : "/18898/facilityType"
        }
      }
    }, {
      "createdDate" : "2017-11-06T11:07:06.815+0000",
      "lastModifiedDate" : "2017-11-06T11:07:06.815+0000",
      "uuid" : "e90438c9-009d-4f7b-bdd3-f7c33a9711ff",
      "inactive" : false,
      "name" : "KARJE",
      "_links" : {
        "self" : {
          "href" : "/18899"
        },
        "facilityTypeUUID" : {
          "href" : "ceff9b6e-c123-465b-a6da-2ed9d41c1921"
        },
        "districtUUID" : {
          "href" : "f158ebd9-bd03-4aac-8aa7-5355de63b89b"
        },
        "district" : {
          "href" : "/18899/district"
        },
        "facilityType" : {
          "href" : "/18899/facilityType"
        }
      }
    }, {
      "createdDate" : "2017-11-06T11:07:06.908+0000",
      "lastModifiedDate" : "2017-11-06T11:07:06.908+0000",
      "uuid" : "4fe538f9-2af6-40a1-a1be-1d877e201836",
      "inactive" : false,
      "name" : "KUNDAPURA PRIVATE UNIT",
      "_links" : {
        "self" : {
          "href" : "/18900"
        },
        "facilityTypeUUID" : {
          "href" : "6d8dd7dd-6210-4cbc-a205-628e77eb0aa5"
        },
        "districtUUID" : {
          "href" : "f158ebd9-bd03-4aac-8aa7-5355de63b89b"
        },
        "district" : {
          "href" : "/18900/district"
        },
        "facilityType" : {
          "href" : "/18900/facilityType"
        }
      }
    }, {
      "createdDate" : "2017-11-06T11:07:06.996+0000",
      "lastModifiedDate" : "2017-11-06T11:07:06.996+0000",
      "uuid" : "d1224e98-289a-4282-a6e9-12f13bf8bb39",
      "inactive" : false,
      "name" : "BRAHMAVARA",
      "_links" : {
        "self" : {
          "href" : "/18901"
        },
        "facilityTypeUUID" : {
          "href" : "c24f8e2e-8d5f-4653-9a7b-0072ed416603"
        },
        "districtUUID" : {
          "href" : "f158ebd9-bd03-4aac-8aa7-5355de63b89b"
        },
        "district" : {
          "href" : "/18901/district"
        },
        "facilityType" : {
          "href" : "/18901/facilityType"
        }
      }
    }, {
      "createdDate" : "2017-11-06T11:07:07.096+0000",
      "lastModifiedDate" : "2017-11-06T11:07:07.096+0000",
      "uuid" : "902677d1-c333-4bab-99a7-4423701ff179",
      "inactive" : false,
      "name" : "KUMBHASHI",
      "_links" : {
        "self" : {
          "href" : "/18902"
        },
        "facilityTypeUUID" : {
          "href" : "ceff9b6e-c123-465b-a6da-2ed9d41c1921"
        },
        "districtUUID" : {
          "href" : "f158ebd9-bd03-4aac-8aa7-5355de63b89b"
        },
        "district" : {
          "href" : "/18902/district"
        },
        "facilityType" : {
          "href" : "/18902/facilityType"
        }
      }
    }, {
      "createdDate" : "2017-11-06T11:07:07.183+0000",
      "lastModifiedDate" : "2017-11-06T11:07:07.183+0000",
      "uuid" : "08dac3a2-82bf-449d-ae67-71e3d4adf344",
      "inactive" : false,
      "name" : "MALA",
      "_links" : {
        "self" : {
          "href" : "/18903"
        },
        "facilityTypeUUID" : {
          "href" : "ceff9b6e-c123-465b-a6da-2ed9d41c1921"
        },
        "districtUUID" : {
          "href" : "f158ebd9-bd03-4aac-8aa7-5355de63b89b"
        },
        "district" : {
          "href" : "/18903/district"
        },
        "facilityType" : {
          "href" : "/18903/facilityType"
        }
      }
    }, {
      "createdDate" : "2017-11-06T11:07:07.273+0000",
      "lastModifiedDate" : "2017-11-06T11:07:07.273+0000",
      "uuid" : "35986c6d-a43e-4f76-9fc0-c7942c661b30",
      "inactive" : false,
      "name" : "HIRIADKA",
      "_links" : {
        "self" : {
          "href" : "/18904"
        },
        "facilityTypeUUID" : {
          "href" : "ceff9b6e-c123-465b-a6da-2ed9d41c1921"
        },
        "districtUUID" : {
          "href" : "f158ebd9-bd03-4aac-8aa7-5355de63b89b"
        },
        "district" : {
          "href" : "/18904/district"
        },
        "facilityType" : {
          "href" : "/18904/facilityType"
        }
      }
    }, {
      "createdDate" : "2017-11-06T11:07:07.366+0000",
      "lastModifiedDate" : "2017-11-06T11:07:07.366+0000",
      "uuid" : "138b3815-1cbb-4e50-8d42-4c9a8b824585",
      "inactive" : false,
      "name" : "DONDARANGADI",
      "_links" : {
        "self" : {
          "href" : "/18905"
        },
        "facilityTypeUUID" : {
          "href" : "ceff9b6e-c123-465b-a6da-2ed9d41c1921"
        },
        "districtUUID" : {
          "href" : "f158ebd9-bd03-4aac-8aa7-5355de63b89b"
        },
        "district" : {
          "href" : "/18905/district"
        },
        "facilityType" : {
          "href" : "/18905/facilityType"
        }
      }
    }, {
      "createdDate" : "2017-11-06T11:07:07.455+0000",
      "lastModifiedDate" : "2017-11-06T11:07:07.455+0000",
      "uuid" : "3027e92c-8892-40a9-9319-17a5156d5b6c",
      "inactive" : false,
      "name" : "FPAI UDUPI",
      "_links" : {
        "self" : {
          "href" : "/18906"
        },
        "facilityTypeUUID" : {
          "href" : "ceff9b6e-c123-465b-a6da-2ed9d41c1921"
        },
        "districtUUID" : {
          "href" : "f158ebd9-bd03-4aac-8aa7-5355de63b89b"
        },
        "district" : {
          "href" : "/18906/district"
        },
        "facilityType" : {
          "href" : "/18906/facilityType"
        }
      }
    }, {
      "createdDate" : "2017-11-06T11:07:07.557+0000",
      "lastModifiedDate" : "2017-11-06T11:07:07.557+0000",
      "uuid" : "de5427d6-0428-4192-bf4b-c4eb77da74d3",
      "inactive" : false,
      "name" : "KUKKEHALLI",
      "_links" : {
        "self" : {
          "href" : "/18907"
        },
        "facilityTypeUUID" : {
          "href" : "ceff9b6e-c123-465b-a6da-2ed9d41c1921"
        },
        "districtUUID" : {
          "href" : "f158ebd9-bd03-4aac-8aa7-5355de63b89b"
        },
        "district" : {
          "href" : "/18907/district"
        },
        "facilityType" : {
          "href" : "/18907/facilityType"
        }
      }
    }, {
      "createdDate" : "2017-11-06T11:07:07.646+0000",
      "lastModifiedDate" : "2017-11-06T11:07:07.646+0000",
      "uuid" : "23560836-5f16-4105-9ec2-f8c894052c25",
      "inactive" : false,
      "name" : "MANDARTHI",
      "_links" : {
        "self" : {
          "href" : "/18908"
        },
        "facilityTypeUUID" : {
          "href" : "ceff9b6e-c123-465b-a6da-2ed9d41c1921"
        },
        "districtUUID" : {
          "href" : "f158ebd9-bd03-4aac-8aa7-5355de63b89b"
        },
        "district" : {
          "href" : "/18908/district"
        },
        "facilityType" : {
          "href" : "/18908/facilityType"
        }
      }
    }, {
      "createdDate" : "2017-11-06T11:07:07.739+0000",
      "lastModifiedDate" : "2017-11-06T11:07:07.739+0000",
      "uuid" : "22a8f3d0-d098-4d0c-8cb9-65e52ca50045",
      "inactive" : false,
      "name" : "GANGOLLI",
      "_links" : {
        "self" : {
          "href" : "/18909"
        },
        "facilityTypeUUID" : {
          "href" : "ceff9b6e-c123-465b-a6da-2ed9d41c1921"
        },
        "districtUUID" : {
          "href" : "f158ebd9-bd03-4aac-8aa7-5355de63b89b"
        },
        "district" : {
          "href" : "/18909/district"
        },
        "facilityType" : {
          "href" : "/18909/facilityType"
        }
      }
    }, {
      "createdDate" : "2017-11-06T11:07:07.829+0000",
      "lastModifiedDate" : "2017-11-06T11:07:07.829+0000",
      "uuid" : "e4c6d8e7-8605-4f92-b682-02f4f9c90c9f",
      "inactive" : false,
      "name" : "KODIBENGRE",
      "_links" : {
        "self" : {
          "href" : "/18910"
        },
        "facilityTypeUUID" : {
          "href" : "ceff9b6e-c123-465b-a6da-2ed9d41c1921"
        },
        "districtUUID" : {
          "href" : "f158ebd9-bd03-4aac-8aa7-5355de63b89b"
        },
        "district" : {
          "href" : "/18910/district"
        },
        "facilityType" : {
          "href" : "/18910/facilityType"
        }
      }
    }, {
      "createdDate" : "2017-11-06T11:07:07.919+0000",
      "lastModifiedDate" : "2017-11-06T11:07:07.919+0000",
      "uuid" : "9f5c0910-482b-4880-ac10-98c0dd03aeeb",
      "inactive" : false,
      "name" : "SALIGRAMA",
      "_links" : {
        "self" : {
          "href" : "/18911"
        },
        "facilityTypeUUID" : {
          "href" : "ceff9b6e-c123-465b-a6da-2ed9d41c1921"
        },
        "districtUUID" : {
          "href" : "f158ebd9-bd03-4aac-8aa7-5355de63b89b"
        },
        "district" : {
          "href" : "/18911/district"
        },
        "facilityType" : {
          "href" : "/18911/facilityType"
        }
      }
    }, {
      "createdDate" : "2017-11-06T11:07:08.010+0000",
      "lastModifiedDate" : "2017-11-06T11:07:08.010+0000",
      "uuid" : "9bfaafac-37be-48f6-b62a-b1caeeb1dce8",
      "inactive" : false,
      "name" : "HALLIHOLE",
      "_links" : {
        "self" : {
          "href" : "/18912"
        },
        "facilityTypeUUID" : {
          "href" : "ceff9b6e-c123-465b-a6da-2ed9d41c1921"
        },
        "districtUUID" : {
          "href" : "f158ebd9-bd03-4aac-8aa7-5355de63b89b"
        },
        "district" : {
          "href" : "/18912/district"
        },
        "facilityType" : {
          "href" : "/18912/facilityType"
        }
      }
    }, {
      "createdDate" : "2017-11-06T11:07:08.102+0000",
      "lastModifiedDate" : "2017-11-06T11:07:08.102+0000",
      "uuid" : "9019989b-a43f-4c4b-bc2a-4395ea6e95ea",
      "inactive" : false,
      "name" : "IRVATHOOR",
      "_links" : {
        "self" : {
          "href" : "/18913"
        },
        "facilityTypeUUID" : {
          "href" : "ceff9b6e-c123-465b-a6da-2ed9d41c1921"
        },
        "districtUUID" : {
          "href" : "f158ebd9-bd03-4aac-8aa7-5355de63b89b"
        },
        "district" : {
          "href" : "/18913/district"
        },
        "facilityType" : {
          "href" : "/18913/facilityType"
        }
      }
    }, {
      "createdDate" : "2017-11-06T11:07:08.191+0000",
      "lastModifiedDate" : "2017-11-06T11:07:08.191+0000",
      "uuid" : "cf3d16d0-3239-4645-96e4-89e5d384804f",
      "inactive" : false,
      "name" : "HAKLDAY",
      "_links" : {
        "self" : {
          "href" : "/18914"
        },
        "facilityTypeUUID" : {
          "href" : "ceff9b6e-c123-465b-a6da-2ed9d41c1921"
        },
        "districtUUID" : {
          "href" : "f158ebd9-bd03-4aac-8aa7-5355de63b89b"
        },
        "district" : {
          "href" : "/18914/district"
        },
        "facilityType" : {
          "href" : "/18914/facilityType"
        }
      }
    }, {
      "createdDate" : "2017-11-06T11:07:08.286+0000",
      "lastModifiedDate" : "2017-11-06T11:07:08.286+0000",
      "uuid" : "9d2e8632-e571-4824-87df-e9f4f1e34438",
      "inactive" : false,
      "name" : "KIRIMANJESHWARA",
      "_links" : {
        "self" : {
          "href" : "/18915"
        },
        "facilityTypeUUID" : {
          "href" : "ceff9b6e-c123-465b-a6da-2ed9d41c1921"
        },
        "districtUUID" : {
          "href" : "f158ebd9-bd03-4aac-8aa7-5355de63b89b"
        },
        "district" : {
          "href" : "/18915/district"
        },
        "facilityType" : {
          "href" : "/18915/facilityType"
        }
      }
    }, {
      "createdDate" : "2017-11-06T11:07:08.375+0000",
      "lastModifiedDate" : "2017-11-06T11:07:08.375+0000",
      "uuid" : "cafb7393-5b0b-4c48-b906-3e4cf5b65bb2",
      "inactive" : false,
      "name" : "KUNDAPURA OTHER HOSPITAL",
      "_links" : {
        "self" : {
          "href" : "/18916"
        },
        "facilityTypeUUID" : {
          "href" : "6d8dd7dd-6210-4cbc-a205-628e77eb0aa5"
        },
        "districtUUID" : {
          "href" : "f158ebd9-bd03-4aac-8aa7-5355de63b89b"
        },
        "district" : {
          "href" : "/18916/district"
        },
        "facilityType" : {
          "href" : "/18916/facilityType"
        }
      }
    }, {
      "createdDate" : "2017-11-06T11:07:08.462+0000",
      "lastModifiedDate" : "2017-11-06T11:07:08.462+0000",
      "uuid" : "7f619687-3eec-4676-884b-fa9dd3fa91a2",
      "inactive" : false,
      "name" : "KOTESHWARA",
      "_links" : {
        "self" : {
          "href" : "/18917"
        },
        "facilityTypeUUID" : {
          "href" : "ceff9b6e-c123-465b-a6da-2ed9d41c1921"
        },
        "districtUUID" : {
          "href" : "f158ebd9-bd03-4aac-8aa7-5355de63b89b"
        },
        "district" : {
          "href" : "/18917/district"
        },
        "facilityType" : {
          "href" : "/18917/facilityType"
        }
      }
    }, {
      "createdDate" : "2017-11-06T11:07:08.556+0000",
      "lastModifiedDate" : "2017-11-06T11:07:08.556+0000",
      "uuid" : "427f1905-769c-47b0-af2b-8f18fad77f00",
      "inactive" : false,
      "name" : "BAJAGOLI",
      "_links" : {
        "self" : {
          "href" : "/18918"
        },
        "facilityTypeUUID" : {
          "href" : "ceff9b6e-c123-465b-a6da-2ed9d41c1921"
        },
        "districtUUID" : {
          "href" : "f158ebd9-bd03-4aac-8aa7-5355de63b89b"
        },
        "district" : {
          "href" : "/18918/district"
        },
        "facilityType" : {
          "href" : "/18918/facilityType"
        }
      }
    }, {
      "createdDate" : "2017-11-06T11:07:08.646+0000",
      "lastModifiedDate" : "2017-11-06T11:07:08.646+0000",
      "uuid" : "16b8d6d5-fb7d-4ebd-be6a-d5d8cdb63530",
      "inactive" : false,
      "name" : "MUDARANGADI",
      "_links" : {
        "self" : {
          "href" : "/18919"
        },
        "facilityTypeUUID" : {
          "href" : "ceff9b6e-c123-465b-a6da-2ed9d41c1921"
        },
        "districtUUID" : {
          "href" : "f158ebd9-bd03-4aac-8aa7-5355de63b89b"
        },
        "district" : {
          "href" : "/18919/district"
        },
        "facilityType" : {
          "href" : "/18919/facilityType"
        }
      }
    }, {
      "createdDate" : "2017-11-06T11:07:08.735+0000",
      "lastModifiedDate" : "2017-11-06T11:07:08.735+0000",
      "uuid" : "30555b85-d925-4c6d-b99b-27ddc6879ee9",
      "inactive" : false,
      "name" : "BELMANNU",
      "_links" : {
        "self" : {
          "href" : "/18920"
        },
        "facilityTypeUUID" : {
          "href" : "ceff9b6e-c123-465b-a6da-2ed9d41c1921"
        },
        "districtUUID" : {
          "href" : "f158ebd9-bd03-4aac-8aa7-5355de63b89b"
        },
        "district" : {
          "href" : "/18920/district"
        },
        "facilityType" : {
          "href" : "/18920/facilityType"
        }
      }
    }, {
      "createdDate" : "2017-11-06T11:07:08.832+0000",
      "lastModifiedDate" : "2017-11-06T11:07:08.832+0000",
      "uuid" : "163216c2-3539-42f9-8117-b32de1cd7991",
      "inactive" : false,
      "name" : "KODI",
      "_links" : {
        "self" : {
          "href" : "/18921"
        },
        "facilityTypeUUID" : {
          "href" : "ceff9b6e-c123-465b-a6da-2ed9d41c1921"
        },
        "districtUUID" : {
          "href" : "f158ebd9-bd03-4aac-8aa7-5355de63b89b"
        },
        "district" : {
          "href" : "/18921/district"
        },
        "facilityType" : {
          "href" : "/18921/facilityType"
        }
      }
    }, {
      "createdDate" : "2017-11-06T11:07:08.919+0000",
      "lastModifiedDate" : "2017-11-06T11:07:08.919+0000",
      "uuid" : "96bbd7d7-e427-40ea-99bf-cd8ba041eea2",
      "inactive" : false,
      "name" : "KUKKANDUR",
      "_links" : {
        "self" : {
          "href" : "/18922"
        },
        "facilityTypeUUID" : {
          "href" : "ceff9b6e-c123-465b-a6da-2ed9d41c1921"
        },
        "districtUUID" : {
          "href" : "f158ebd9-bd03-4aac-8aa7-5355de63b89b"
        },
        "district" : {
          "href" : "/18922/district"
        },
        "facilityType" : {
          "href" : "/18922/facilityType"
        }
      }
    }, {
      "createdDate" : "2017-11-06T11:07:09.009+0000",
      "lastModifiedDate" : "2017-11-06T11:07:09.009+0000",
      "uuid" : "15aff695-b5a8-4988-bf7d-0b4e753b4bb5",
      "inactive" : false,
      "name" : "BAILOOR (24X7)",
      "_links" : {
        "self" : {
          "href" : "/18923"
        },
        "facilityTypeUUID" : {
          "href" : "ceff9b6e-c123-465b-a6da-2ed9d41c1921"
        },
        "districtUUID" : {
          "href" : "f158ebd9-bd03-4aac-8aa7-5355de63b89b"
        },
        "district" : {
          "href" : "/18923/district"
        },
        "facilityType" : {
          "href" : "/18923/facilityType"
        }
      }
    }, {
      "createdDate" : "2017-11-06T11:07:09.098+0000",
      "lastModifiedDate" : "2017-11-06T11:07:09.098+0000",
      "uuid" : "84e1fc19-6845-4e84-a44c-835f7078db73",
      "inactive" : false,
      "name" : "BASRUR",
      "_links" : {
        "self" : {
          "href" : "/18924"
        },
        "facilityTypeUUID" : {
          "href" : "ceff9b6e-c123-465b-a6da-2ed9d41c1921"
        },
        "districtUUID" : {
          "href" : "f158ebd9-bd03-4aac-8aa7-5355de63b89b"
        },
        "district" : {
          "href" : "/18924/district"
        },
        "facilityType" : {
          "href" : "/18924/facilityType"
        }
      }
    }, {
      "createdDate" : "2017-11-06T11:07:09.183+0000",
      "lastModifiedDate" : "2017-11-06T11:07:09.183+0000",
      "uuid" : "07427549-c2bb-43de-9e0b-274ac4e1ea5d",
      "inactive" : false,
      "name" : "NANDALIKE",
      "_links" : {
        "self" : {
          "href" : "/18925"
        },
        "facilityTypeUUID" : {
          "href" : "ceff9b6e-c123-465b-a6da-2ed9d41c1921"
        },
        "districtUUID" : {
          "href" : "f158ebd9-bd03-4aac-8aa7-5355de63b89b"
        },
        "district" : {
          "href" : "/18925/district"
        },
        "facilityType" : {
          "href" : "/18925/facilityType"
        }
      }
    }, {
      "createdDate" : "2017-11-06T11:07:09.271+0000",
      "lastModifiedDate" : "2017-11-06T11:07:09.271+0000",
      "uuid" : "ee39282e-f320-4b4b-8557-3409daabef8c",
      "inactive" : false,
      "name" : "MALPE",
      "_links" : {
        "self" : {
          "href" : "/18926"
        },
        "facilityTypeUUID" : {
          "href" : "ceff9b6e-c123-465b-a6da-2ed9d41c1921"
        },
        "districtUUID" : {
          "href" : "f158ebd9-bd03-4aac-8aa7-5355de63b89b"
        },
        "district" : {
          "href" : "/18926/district"
        },
        "facilityType" : {
          "href" : "/18926/facilityType"
        }
      }
    }, {
      "createdDate" : "2017-11-06T11:07:09.365+0000",
      "lastModifiedDate" : "2017-11-06T11:07:09.365+0000",
      "uuid" : "6d991587-eb07-4dff-9550-659988326f56",
      "inactive" : false,
      "name" : "INNA",
      "_links" : {
        "self" : {
          "href" : "/18927"
        },
        "facilityTypeUUID" : {
          "href" : "ceff9b6e-c123-465b-a6da-2ed9d41c1921"
        },
        "districtUUID" : {
          "href" : "f158ebd9-bd03-4aac-8aa7-5355de63b89b"
        },
        "district" : {
          "href" : "/18927/district"
        },
        "facilityType" : {
          "href" : "/18927/facilityType"
        }
      }
    }, {
      "createdDate" : "2017-11-06T11:07:09.454+0000",
      "lastModifiedDate" : "2017-11-06T11:07:09.454+0000",
      "uuid" : "3cdd84fa-589e-4f5c-bb69-f7d2a75ad77e",
      "inactive" : false,
      "name" : "UDUPI PRIVATE UNIT",
      "_links" : {
        "self" : {
          "href" : "/18928"
        },
        "facilityTypeUUID" : {
          "href" : "6d8dd7dd-6210-4cbc-a205-628e77eb0aa5"
        },
        "districtUUID" : {
          "href" : "f158ebd9-bd03-4aac-8aa7-5355de63b89b"
        },
        "district" : {
          "href" : "/18928/district"
        },
        "facilityType" : {
          "href" : "/18928/facilityType"
        }
      }
    }, {
      "createdDate" : "2017-11-06T11:07:09.540+0000",
      "lastModifiedDate" : "2017-11-06T11:07:09.540+0000",
      "uuid" : "856eb559-d965-4afc-b4cd-a0c6561bf791",
      "inactive" : false,
      "name" : "SHIRUVA",
      "_links" : {
        "self" : {
          "href" : "/18929"
        },
        "facilityTypeUUID" : {
          "href" : "c24f8e2e-8d5f-4653-9a7b-0072ed416603"
        },
        "districtUUID" : {
          "href" : "f158ebd9-bd03-4aac-8aa7-5355de63b89b"
        },
        "district" : {
          "href" : "/18929/district"
        },
        "facilityType" : {
          "href" : "/18929/facilityType"
        }
      }
    } ]
  },
  "_links" : {
    "first" : {
      "href" : "/search/lastModifiedByState?lastModifiedDate=1900-01-01T00:00:00.001Z&name=Karnataka&page=0&size=200"
    },
    "prev" : {
      "href" : "/search/lastModifiedByState?lastModifiedDate=1900-01-01T00:00:00.001Z&name=Karnataka&page=14&size=200"
    },
    "self" : {
      "href" : "/search/lastModifiedByState?lastModifiedDate=1900-01-01T00:00:00.001Z&size=200&page=15&name=Karnataka"
    },
    "last" : {
      "href" : "/search/lastModifiedByState?lastModifiedDate=1900-01-01T00:00:00.001Z&name=Karnataka&page=15&size=200"
    }
  },
  "page" : {
    "size" : 200,
    "totalElements" : 3042,
    "totalPages" : 16,
    "number" : 15
  }
}