{
  "_embedded" : {
    "facility" : [ {
      "createdDate" : "2017-11-06T10:58:21.456+0000",
      "lastModifiedDate" : "2017-11-06T10:58:21.456+0000",
      "uuid" : "6f8922c4-34b0-4bc4-906a-97aeec61f774",
      "inactive" : false,
      "name" : "Harie",
      "_links" : {
        "self" : {
          "href" : "/14785"
        },
        "facilityTypeUUID" : {
          "href" : "ceff9b6e-c123-465b-a6da-2ed9d41c1921"
        },
        "districtUUID" : {
          "href" : "dac76b7f-c445-4eaf-85e5-a1c6b353cbce"
        },
        "district" : {
          "href" : "/14785/district"
        },
        "facilityType" : {
          "href" : "/14785/facilityType"
        }
      }
    }, {
      "createdDate" : "2017-11-06T10:58:21.634+0000",
      "lastModifiedDate" : "2017-11-06T10:58:21.634+0000",
      "uuid" : "db087b5a-c29a-41f2-a78b-f77506be2978",
      "inactive" : false,
      "name" : "Lalpora",
      "_links" : {
        "self" : {
          "href" : "/14786"
        },
        "facilityTypeUUID" : {
          "href" : "ceff9b6e-c123-465b-a6da-2ed9d41c1921"
        },
        "districtUUID" : {
          "href" : "dac76b7f-c445-4eaf-85e5-a1c6b353cbce"
        },
        "district" : {
          "href" : "/14786/district"
        },
        "facilityType" : {
          "href" : "/14786/facilityType"
        }
      }
    }, {
      "createdDate" : "2017-11-06T10:58:21.814+0000",
      "lastModifiedDate" : "2017-11-06T10:58:21.814+0000",
      "uuid" : "01fe074d-43a4-4b7c-8b2c-5ab860735480",
      "inactive" : false,
      "name" : "Awoora",
      "_links" : {
        "self" : {
          "href" : "/14787"
        },
        "facilityTypeUUID" : {
          "href" : "ceff9b6e-c123-465b-a6da-2ed9d41c1921"
        },
        "districtUUID" : {
          "href" : "dac76b7f-c445-4eaf-85e5-a1c6b353cbce"
        },
        "district" : {
          "href" : "/14787/district"
        },
        "facilityType" : {
          "href" : "/14787/facilityType"
        }
      }
    }, {
      "createdDate" : "2017-11-06T10:58:21.990+0000",
      "lastModifiedDate" : "2017-11-06T10:58:21.990+0000",
      "uuid" : "9cd7e440-0d5d-4d45-a3b0-c1e8b5b15a2e",
      "inactive" : false,
      "name" : "CHC Kupwara",
      "_links" : {
        "self" : {
          "href" : "/14788"
        },
        "facilityTypeUUID" : {
          "href" : "c24f8e2e-8d5f-4653-9a7b-0072ed416603"
        },
        "districtUUID" : {
          "href" : "dac76b7f-c445-4eaf-85e5-a1c6b353cbce"
        },
        "district" : {
          "href" : "/14788/district"
        },
        "facilityType" : {
          "href" : "/14788/facilityType"
        }
      }
    }, {
      "createdDate" : "2017-11-06T10:58:22.303+0000",
      "lastModifiedDate" : "2017-11-06T10:58:22.303+0000",
      "uuid" : "4bb48f02-8c62-49e1-9ee2-9e7d3f2e8f2a",
      "inactive" : false,
      "name" : "Nowgam",
      "_links" : {
        "self" : {
          "href" : "/14789"
        },
        "facilityTypeUUID" : {
          "href" : "ceff9b6e-c123-465b-a6da-2ed9d41c1921"
        },
        "districtUUID" : {
          "href" : "dac76b7f-c445-4eaf-85e5-a1c6b353cbce"
        },
        "district" : {
          "href" : "/14789/district"
        },
        "facilityType" : {
          "href" : "/14789/facilityType"
        }
      }
    }, {
      "createdDate" : "2017-11-06T10:58:22.791+0000",
      "lastModifiedDate" : "2017-11-06T10:58:22.791+0000",
      "uuid" : "0a8755a2-77e6-4e4c-a6b3-d8b26793bef4",
      "inactive" : false,
      "name" : "Magam",
      "_links" : {
        "self" : {
          "href" : "/14790"
        },
        "facilityTypeUUID" : {
          "href" : "ceff9b6e-c123-465b-a6da-2ed9d41c1921"
        },
        "districtUUID" : {
          "href" : "dac76b7f-c445-4eaf-85e5-a1c6b353cbce"
        },
        "district" : {
          "href" : "/14790/district"
        },
        "facilityType" : {
          "href" : "/14790/facilityType"
        }
      }
    }, {
      "createdDate" : "2017-11-06T10:58:22.962+0000",
      "lastModifiedDate" : "2017-11-06T10:58:22.962+0000",
      "uuid" : "80a30c79-7602-4d64-b5e9-36754edf8a51",
      "inactive" : false,
      "name" : "NTPHC Halmathpora",
      "_links" : {
        "self" : {
          "href" : "/14791"
        },
        "facilityTypeUUID" : {
          "href" : "ceff9b6e-c123-465b-a6da-2ed9d41c1921"
        },
        "districtUUID" : {
          "href" : "dac76b7f-c445-4eaf-85e5-a1c6b353cbce"
        },
        "district" : {
          "href" : "/14791/district"
        },
        "facilityType" : {
          "href" : "/14791/facilityType"
        }
      }
    }, {
      "createdDate" : "2017-11-06T10:58:23.137+0000",
      "lastModifiedDate" : "2017-11-06T10:58:23.137+0000",
      "uuid" : "711a3b65-343d-4d25-b409-94c38d5eab99",
      "inactive" : false,
      "name" : "Gabra",
      "_links" : {
        "self" : {
          "href" : "/14792"
        },
        "facilityTypeUUID" : {
          "href" : "ceff9b6e-c123-465b-a6da-2ed9d41c1921"
        },
        "districtUUID" : {
          "href" : "dac76b7f-c445-4eaf-85e5-a1c6b353cbce"
        },
        "district" : {
          "href" : "/14792/district"
        },
        "facilityType" : {
          "href" : "/14792/facilityType"
        }
      }
    }, {
      "createdDate" : "2017-11-06T10:58:23.457+0000",
      "lastModifiedDate" : "2017-11-06T10:58:23.457+0000",
      "uuid" : "38c2dbc8-97da-42b7-bf63-8806faece8a9",
      "inactive" : false,
      "name" : "Kalamabad",
      "_links" : {
        "self" : {
          "href" : "/14793"
        },
        "facilityTypeUUID" : {
          "href" : "ceff9b6e-c123-465b-a6da-2ed9d41c1921"
        },
        "districtUUID" : {
          "href" : "dac76b7f-c445-4eaf-85e5-a1c6b353cbce"
        },
        "district" : {
          "href" : "/14793/district"
        },
        "facilityType" : {
          "href" : "/14793/facilityType"
        }
      }
    }, {
      "createdDate" : "2017-11-06T10:58:23.669+0000",
      "lastModifiedDate" : "2017-11-06T10:58:23.669+0000",
      "uuid" : "1c5e4262-30ee-44cd-bf14-5ca4fa055f7a",
      "inactive" : false,
      "name" : "Machil",
      "_links" : {
        "self" : {
          "href" : "/14794"
        },
        "facilityTypeUUID" : {
          "href" : "ceff9b6e-c123-465b-a6da-2ed9d41c1921"
        },
        "districtUUID" : {
          "href" : "dac76b7f-c445-4eaf-85e5-a1c6b353cbce"
        },
        "district" : {
          "href" : "/14794/district"
        },
        "facilityType" : {
          "href" : "/14794/facilityType"
        }
      }
    }, {
      "createdDate" : "2017-11-06T10:58:23.949+0000",
      "lastModifiedDate" : "2017-11-06T10:58:23.949+0000",
      "uuid" : "5ce80040-da09-4e74-9dd9-5851fd2d8c51",
      "inactive" : false,
      "name" : "Drugmulla",
      "_links" : {
        "self" : {
          "href" : "/14795"
        },
        "facilityTypeUUID" : {
          "href" : "ceff9b6e-c123-465b-a6da-2ed9d41c1921"
        },
        "districtUUID" : {
          "href" : "dac76b7f-c445-4eaf-85e5-a1c6b353cbce"
        },
        "district" : {
          "href" : "/14795/district"
        },
        "facilityType" : {
          "href" : "/14795/facilityType"
        }
      }
    }, {
      "createdDate" : "2017-11-06T10:58:24.153+0000",
      "lastModifiedDate" : "2017-11-06T10:58:24.153+0000",
      "uuid" : "f811f50b-ca2e-44ca-8123-109d68711d96",
      "inactive" : false,
      "name" : "Gushi",
      "_links" : {
        "self" : {
          "href" : "/14796"
        },
        "facilityTypeUUID" : {
          "href" : "ceff9b6e-c123-465b-a6da-2ed9d41c1921"
        },
        "districtUUID" : {
          "href" : "dac76b7f-c445-4eaf-85e5-a1c6b353cbce"
        },
        "district" : {
          "href" : "/14796/district"
        },
        "facilityType" : {
          "href" : "/14796/facilityType"
        }
      }
    }, {
      "createdDate" : "2017-11-06T10:58:24.328+0000",
      "lastModifiedDate" : "2017-11-06T10:58:24.328+0000",
      "uuid" : "67de4b6d-b4b6-47b8-a618-b6754f3d868e",
      "inactive" : false,
      "name" : "Kalarosse",
      "_links" : {
        "self" : {
          "href" : "/14797"
        },
        "facilityTypeUUID" : {
          "href" : "ceff9b6e-c123-465b-a6da-2ed9d41c1921"
        },
        "districtUUID" : {
          "href" : "dac76b7f-c445-4eaf-85e5-a1c6b353cbce"
        },
        "district" : {
          "href" : "/14797/district"
        },
        "facilityType" : {
          "href" : "/14797/facilityType"
        }
      }
    }, {
      "createdDate" : "2017-11-06T10:58:24.503+0000",
      "lastModifiedDate" : "2017-11-06T10:58:24.503+0000",
      "uuid" : "f11d1265-0f3c-42b0-9c21-83f90bfb6aeb",
      "inactive" : false,
      "name" : "Monbal",
      "_links" : {
        "self" : {
          "href" : "/14798"
        },
        "facilityTypeUUID" : {
          "href" : "ceff9b6e-c123-465b-a6da-2ed9d41c1921"
        },
        "districtUUID" : {
          "href" : "dac76b7f-c445-4eaf-85e5-a1c6b353cbce"
        },
        "district" : {
          "href" : "/14798/district"
        },
        "facilityType" : {
          "href" : "/14798/facilityType"
        }
      }
    }, {
      "createdDate" : "2017-11-06T10:58:24.681+0000",
      "lastModifiedDate" : "2017-11-06T10:58:24.681+0000",
      "uuid" : "6367f017-0b2c-4e68-a21c-105fd7c7ef07",
      "inactive" : false,
      "name" : "Behnipora",
      "_links" : {
        "self" : {
          "href" : "/14799"
        },
        "facilityTypeUUID" : {
          "href" : "ceff9b6e-c123-465b-a6da-2ed9d41c1921"
        },
        "districtUUID" : {
          "href" : "dac76b7f-c445-4eaf-85e5-a1c6b353cbce"
        },
        "district" : {
          "href" : "/14799/district"
        },
        "facilityType" : {
          "href" : "/14799/facilityType"
        }
      }
    }, {
      "createdDate" : "2017-11-06T10:58:24.948+0000",
      "lastModifiedDate" : "2017-11-06T10:58:24.948+0000",
      "uuid" : "12d82876-346e-4972-a3d3-399e6ef957cd",
      "inactive" : false,
      "name" : "Cheerakoot",
      "_links" : {
        "self" : {
          "href" : "/14800"
        },
        "facilityTypeUUID" : {
          "href" : "ceff9b6e-c123-465b-a6da-2ed9d41c1921"
        },
        "districtUUID" : {
          "href" : "dac76b7f-c445-4eaf-85e5-a1c6b353cbce"
        },
        "district" : {
          "href" : "/14800/district"
        },
        "facilityType" : {
          "href" : "/14800/facilityType"
        }
      }
    }, {
      "createdDate" : "2017-11-06T10:58:25.298+0000",
      "lastModifiedDate" : "2017-11-06T10:58:25.298+0000",
      "uuid" : "827014f9-e047-42e0-bb42-983cfd69fc13",
      "inactive" : false,
      "name" : "CHC Kralgund",
      "_links" : {
        "self" : {
          "href" : "/14801"
        },
        "facilityTypeUUID" : {
          "href" : "c24f8e2e-8d5f-4653-9a7b-0072ed416603"
        },
        "districtUUID" : {
          "href" : "dac76b7f-c445-4eaf-85e5-a1c6b353cbce"
        },
        "district" : {
          "href" : "/14801/district"
        },
        "facilityType" : {
          "href" : "/14801/facilityType"
        }
      }
    }, {
      "createdDate" : "2017-11-06T10:58:25.648+0000",
      "lastModifiedDate" : "2017-11-06T10:58:25.648+0000",
      "uuid" : "db6200e8-cc36-47ca-a9fb-b3cd82d14ee4",
      "inactive" : false,
      "name" : "AD Kutlari",
      "_links" : {
        "self" : {
          "href" : "/14802"
        },
        "facilityTypeUUID" : {
          "href" : "ceff9b6e-c123-465b-a6da-2ed9d41c1921"
        },
        "districtUUID" : {
          "href" : "dac76b7f-c445-4eaf-85e5-a1c6b353cbce"
        },
        "district" : {
          "href" : "/14802/district"
        },
        "facilityType" : {
          "href" : "/14802/facilityType"
        }
      }
    }, {
      "createdDate" : "2017-11-06T10:58:25.957+0000",
      "lastModifiedDate" : "2017-11-06T10:58:25.957+0000",
      "uuid" : "677ac8ff-b34e-4cc9-ae55-14ef9163ce6b",
      "inactive" : false,
      "name" : "CHC Tangdar",
      "_links" : {
        "self" : {
          "href" : "/14803"
        },
        "facilityTypeUUID" : {
          "href" : "c24f8e2e-8d5f-4653-9a7b-0072ed416603"
        },
        "districtUUID" : {
          "href" : "dac76b7f-c445-4eaf-85e5-a1c6b353cbce"
        },
        "district" : {
          "href" : "/14803/district"
        },
        "facilityType" : {
          "href" : "/14803/facilityType"
        }
      }
    }, {
      "createdDate" : "2017-11-06T10:58:26.182+0000",
      "lastModifiedDate" : "2017-11-06T10:58:26.182+0000",
      "uuid" : "6da42d49-1a21-40ac-8379-ca77f189ab44",
      "inactive" : false,
      "name" : "Maidanpora",
      "_links" : {
        "self" : {
          "href" : "/14804"
        },
        "facilityTypeUUID" : {
          "href" : "ceff9b6e-c123-465b-a6da-2ed9d41c1921"
        },
        "districtUUID" : {
          "href" : "dac76b7f-c445-4eaf-85e5-a1c6b353cbce"
        },
        "district" : {
          "href" : "/14804/district"
        },
        "facilityType" : {
          "href" : "/14804/facilityType"
        }
      }
    }, {
      "createdDate" : "2017-11-06T10:58:26.269+0000",
      "lastModifiedDate" : "2017-11-06T10:58:26.269+0000",
      "uuid" : "28a1f2dd-32c6-40ff-b7ca-c83553be1fab",
      "inactive" : false,
      "name" : "Villgam",
      "_links" : {
        "self" : {
          "href" : "/14805"
        },
        "facilityTypeUUID" : {
          "href" : "ceff9b6e-c123-465b-a6da-2ed9d41c1921"
        },
        "districtUUID" : {
          "href" : "dac76b7f-c445-4eaf-85e5-a1c6b353cbce"
        },
        "district" : {
          "href" : "/14805/district"
        },
        "facilityType" : {
          "href" : "/14805/facilityType"
        }
      }
    }, {
      "createdDate" : "2017-11-06T10:58:26.361+0000",
      "lastModifiedDate" : "2017-11-06T10:58:26.361+0000",
      "uuid" : "53a2a131-2a81-41e1-8813-16773bb9f31f",
      "inactive" : false,
      "name" : "Wadipora",
      "_links" : {
        "self" : {
          "href" : "/14806"
        },
        "facilityTypeUUID" : {
          "href" : "ceff9b6e-c123-465b-a6da-2ed9d41c1921"
        },
        "districtUUID" : {
          "href" : "dac76b7f-c445-4eaf-85e5-a1c6b353cbce"
        },
        "district" : {
          "href" : "/14806/district"
        },
        "facilityType" : {
          "href" : "/14806/facilityType"
        }
      }
    }, {
      "createdDate" : "2017-11-06T10:58:26.445+0000",
      "lastModifiedDate" : "2017-11-06T10:58:26.445+0000",
      "uuid" : "d3b881a2-4ced-4113-a80c-a22571064938",
      "inactive" : false,
      "name" : "Tekipora",
      "_links" : {
        "self" : {
          "href" : "/14807"
        },
        "facilityTypeUUID" : {
          "href" : "ceff9b6e-c123-465b-a6da-2ed9d41c1921"
        },
        "districtUUID" : {
          "href" : "dac76b7f-c445-4eaf-85e5-a1c6b353cbce"
        },
        "district" : {
          "href" : "/14807/district"
        },
        "facilityType" : {
          "href" : "/14807/facilityType"
        }
      }
    }, {
      "createdDate" : "2017-11-06T10:58:26.535+0000",
      "lastModifiedDate" : "2017-11-06T10:58:26.535+0000",
      "uuid" : "2dc92fb8-a711-4f2b-8f24-090aa33b2735",
      "inactive" : false,
      "name" : "NTPHC Shartpora",
      "_links" : {
        "self" : {
          "href" : "/14808"
        },
        "facilityTypeUUID" : {
          "href" : "ceff9b6e-c123-465b-a6da-2ed9d41c1921"
        },
        "districtUUID" : {
          "href" : "dac76b7f-c445-4eaf-85e5-a1c6b353cbce"
        },
        "district" : {
          "href" : "/14808/district"
        },
        "facilityType" : {
          "href" : "/14808/facilityType"
        }
      }
    }, {
      "createdDate" : "2017-11-06T10:58:26.627+0000",
      "lastModifiedDate" : "2017-11-06T10:58:26.627+0000",
      "uuid" : "47d9f828-8f4f-4749-9fd5-2e22171283ca",
      "inactive" : false,
      "name" : "CHC Zachaldara",
      "_links" : {
        "self" : {
          "href" : "/14809"
        },
        "facilityTypeUUID" : {
          "href" : "c24f8e2e-8d5f-4653-9a7b-0072ed416603"
        },
        "districtUUID" : {
          "href" : "dac76b7f-c445-4eaf-85e5-a1c6b353cbce"
        },
        "district" : {
          "href" : "/14809/district"
        },
        "facilityType" : {
          "href" : "/14809/facilityType"
        }
      }
    }, {
      "createdDate" : "2017-11-06T10:58:26.716+0000",
      "lastModifiedDate" : "2017-11-06T10:58:26.716+0000",
      "uuid" : "397ead34-75c4-44f3-a3db-49cbc1e21024",
      "inactive" : false,
      "name" : "CHC Kralpora",
      "_links" : {
        "self" : {
          "href" : "/14810"
        },
        "facilityTypeUUID" : {
          "href" : "c24f8e2e-8d5f-4653-9a7b-0072ed416603"
        },
        "districtUUID" : {
          "href" : "dac76b7f-c445-4eaf-85e5-a1c6b353cbce"
        },
        "district" : {
          "href" : "/14810/district"
        },
        "facilityType" : {
          "href" : "/14810/facilityType"
        }
      }
    }, {
      "createdDate" : "2017-11-06T10:58:26.822+0000",
      "lastModifiedDate" : "2017-11-06T10:58:26.822+0000",
      "uuid" : "8f5586d1-b473-47e7-bffe-5084290ab30e",
      "inactive" : false,
      "name" : "Trehgam",
      "_links" : {
        "self" : {
          "href" : "/14811"
        },
        "facilityTypeUUID" : {
          "href" : "ceff9b6e-c123-465b-a6da-2ed9d41c1921"
        },
        "districtUUID" : {
          "href" : "dac76b7f-c445-4eaf-85e5-a1c6b353cbce"
        },
        "district" : {
          "href" : "/14811/district"
        },
        "facilityType" : {
          "href" : "/14811/facilityType"
        }
      }
    }, {
      "createdDate" : "2017-11-06T10:58:26.916+0000",
      "lastModifiedDate" : "2017-11-06T10:58:26.916+0000",
      "uuid" : "2461aaaf-f7b0-4c66-97e3-23d900aa69b4",
      "inactive" : false,
      "name" : "Kandi",
      "_links" : {
        "self" : {
          "href" : "/14812"
        },
        "facilityTypeUUID" : {
          "href" : "ceff9b6e-c123-465b-a6da-2ed9d41c1921"
        },
        "districtUUID" : {
          "href" : "dac76b7f-c445-4eaf-85e5-a1c6b353cbce"
        },
        "district" : {
          "href" : "/14812/district"
        },
        "facilityType" : {
          "href" : "/14812/facilityType"
        }
      }
    }, {
      "createdDate" : "2017-11-06T10:58:27.017+0000",
      "lastModifiedDate" : "2017-11-06T10:58:27.017+0000",
      "uuid" : "263981b8-e867-45be-809a-6e2d237d843c",
      "inactive" : false,
      "name" : "Ashpora",
      "_links" : {
        "self" : {
          "href" : "/14813"
        },
        "facilityTypeUUID" : {
          "href" : "ceff9b6e-c123-465b-a6da-2ed9d41c1921"
        },
        "districtUUID" : {
          "href" : "dac76b7f-c445-4eaf-85e5-a1c6b353cbce"
        },
        "district" : {
          "href" : "/14813/district"
        },
        "facilityType" : {
          "href" : "/14813/facilityType"
        }
      }
    }, {
      "createdDate" : "2017-11-06T10:58:27.105+0000",
      "lastModifiedDate" : "2017-11-06T10:58:27.105+0000",
      "uuid" : "c35a5151-3173-470c-b2e2-4528abc23919",
      "inactive" : false,
      "name" : "Teetwal",
      "_links" : {
        "self" : {
          "href" : "/14814"
        },
        "facilityTypeUUID" : {
          "href" : "ceff9b6e-c123-465b-a6da-2ed9d41c1921"
        },
        "districtUUID" : {
          "href" : "dac76b7f-c445-4eaf-85e5-a1c6b353cbce"
        },
        "district" : {
          "href" : "/14814/district"
        },
        "facilityType" : {
          "href" : "/14814/facilityType"
        }
      }
    }, {
      "createdDate" : "2017-11-06T10:58:27.201+0000",
      "lastModifiedDate" : "2017-11-06T10:58:27.201+0000",
      "uuid" : "b343226e-36b2-445b-892a-b88a9e9bff0c",
      "inactive" : false,
      "name" : "DH Handwara",
      "_links" : {
        "self" : {
          "href" : "/14815"
        },
        "facilityTypeUUID" : {
          "href" : "f28c99d3-ba72-4a36-925a-cfa0c3bb6a63"
        },
        "districtUUID" : {
          "href" : "dac76b7f-c445-4eaf-85e5-a1c6b353cbce"
        },
        "district" : {
          "href" : "/14815/district"
        },
        "facilityType" : {
          "href" : "/14815/facilityType"
        }
      }
    }, {
      "createdDate" : "2017-11-06T10:58:27.289+0000",
      "lastModifiedDate" : "2017-11-06T10:58:27.289+0000",
      "uuid" : "e163b1b4-1cc5-439b-8183-8a37eb6f5a71",
      "inactive" : false,
      "name" : "Nagrimalpora",
      "_links" : {
        "self" : {
          "href" : "/14816"
        },
        "facilityTypeUUID" : {
          "href" : "ceff9b6e-c123-465b-a6da-2ed9d41c1921"
        },
        "districtUUID" : {
          "href" : "dac76b7f-c445-4eaf-85e5-a1c6b353cbce"
        },
        "district" : {
          "href" : "/14816/district"
        },
        "facilityType" : {
          "href" : "/14816/facilityType"
        }
      }
    }, {
      "createdDate" : "2017-11-06T10:58:27.379+0000",
      "lastModifiedDate" : "2017-11-06T10:58:27.379+0000",
      "uuid" : "50863c4f-9dbf-4a51-bbb2-0f3dfea0e826",
      "inactive" : false,
      "name" : "NTPHC Gazriyal",
      "_links" : {
        "self" : {
          "href" : "/14817"
        },
        "facilityTypeUUID" : {
          "href" : "ceff9b6e-c123-465b-a6da-2ed9d41c1921"
        },
        "districtUUID" : {
          "href" : "dac76b7f-c445-4eaf-85e5-a1c6b353cbce"
        },
        "district" : {
          "href" : "/14817/district"
        },
        "facilityType" : {
          "href" : "/14817/facilityType"
        }
      }
    }, {
      "createdDate" : "2017-11-06T10:58:27.463+0000",
      "lastModifiedDate" : "2017-11-06T10:58:27.463+0000",
      "uuid" : "1c548f88-98c3-4c31-8ad8-f98f756c5e6e",
      "inactive" : false,
      "name" : "NTPHC Wadder",
      "_links" : {
        "self" : {
          "href" : "/14818"
        },
        "facilityTypeUUID" : {
          "href" : "ceff9b6e-c123-465b-a6da-2ed9d41c1921"
        },
        "districtUUID" : {
          "href" : "dac76b7f-c445-4eaf-85e5-a1c6b353cbce"
        },
        "district" : {
          "href" : "/14818/district"
        },
        "facilityType" : {
          "href" : "/14818/facilityType"
        }
      }
    }, {
      "createdDate" : "2017-11-06T10:58:27.558+0000",
      "lastModifiedDate" : "2017-11-06T10:58:27.558+0000",
      "uuid" : "ecfddb2f-38b3-4678-886c-c358cc0112b6",
      "inactive" : false,
      "name" : "Tarathpora",
      "_links" : {
        "self" : {
          "href" : "/14819"
        },
        "facilityTypeUUID" : {
          "href" : "ceff9b6e-c123-465b-a6da-2ed9d41c1921"
        },
        "districtUUID" : {
          "href" : "dac76b7f-c445-4eaf-85e5-a1c6b353cbce"
        },
        "district" : {
          "href" : "/14819/district"
        },
        "facilityType" : {
          "href" : "/14819/facilityType"
        }
      }
    }, {
      "createdDate" : "2017-11-06T10:58:27.649+0000",
      "lastModifiedDate" : "2017-11-06T10:58:27.649+0000",
      "uuid" : "f13e67a2-f984-4ff3-a081-25684f511c6a",
      "inactive" : false,
      "name" : "Unisoo",
      "_links" : {
        "self" : {
          "href" : "/14820"
        },
        "facilityTypeUUID" : {
          "href" : "ceff9b6e-c123-465b-a6da-2ed9d41c1921"
        },
        "districtUUID" : {
          "href" : "dac76b7f-c445-4eaf-85e5-a1c6b353cbce"
        },
        "district" : {
          "href" : "/14820/district"
        },
        "facilityType" : {
          "href" : "/14820/facilityType"
        }
      }
    }, {
      "createdDate" : "2017-11-06T10:58:27.740+0000",
      "lastModifiedDate" : "2017-11-06T10:58:27.740+0000",
      "uuid" : "19f76bd6-96d5-46a9-b893-91b4a58f0eaa",
      "inactive" : false,
      "name" : "Batpora",
      "_links" : {
        "self" : {
          "href" : "/14821"
        },
        "facilityTypeUUID" : {
          "href" : "ceff9b6e-c123-465b-a6da-2ed9d41c1921"
        },
        "districtUUID" : {
          "href" : "dac76b7f-c445-4eaf-85e5-a1c6b353cbce"
        },
        "district" : {
          "href" : "/14821/district"
        },
        "facilityType" : {
          "href" : "/14821/facilityType"
        }
      }
    }, {
      "createdDate" : "2017-11-06T10:58:27.831+0000",
      "lastModifiedDate" : "2017-11-06T10:58:27.831+0000",
      "uuid" : "3020b48c-43d4-4e4b-a650-698f1354af25",
      "inactive" : false,
      "name" : "Chogal",
      "_links" : {
        "self" : {
          "href" : "/14822"
        },
        "facilityTypeUUID" : {
          "href" : "ceff9b6e-c123-465b-a6da-2ed9d41c1921"
        },
        "districtUUID" : {
          "href" : "dac76b7f-c445-4eaf-85e5-a1c6b353cbce"
        },
        "district" : {
          "href" : "/14822/district"
        },
        "facilityType" : {
          "href" : "/14822/facilityType"
        }
      }
    }, {
      "createdDate" : "2017-11-06T10:58:27.918+0000",
      "lastModifiedDate" : "2017-11-06T10:58:27.918+0000",
      "uuid" : "a660b1fa-819f-4934-8deb-d580c42d6250",
      "inactive" : false,
      "name" : "Panzgam",
      "_links" : {
        "self" : {
          "href" : "/14823"
        },
        "facilityTypeUUID" : {
          "href" : "ceff9b6e-c123-465b-a6da-2ed9d41c1921"
        },
        "districtUUID" : {
          "href" : "dac76b7f-c445-4eaf-85e5-a1c6b353cbce"
        },
        "district" : {
          "href" : "/14823/district"
        },
        "facilityType" : {
          "href" : "/14823/facilityType"
        }
      }
    } ]
  },
  "_links" : {
    "first" : {
      "href" : "/search/lastModifiedByState?lastModifiedDate=1900-01-01T00:00:00.001Z&name=Jammu%20and%20Kashmir&page=0&size=200"
    },
    "prev" : {
      "href" : "/search/lastModifiedByState?lastModifiedDate=1900-01-01T00:00:00.001Z&name=Jammu%20and%20Kashmir&page=3&size=200"
    },
    "self" : {
      "href" : "/search/lastModifiedByState?lastModifiedDate=1900-01-01T00:00:00.001Z&size=200&page=4&name=Jammu%20and%20Kashmir"
    },
    "last" : {
      "href" : "/search/lastModifiedByState?lastModifiedDate=1900-01-01T00:00:00.001Z&name=Jammu%20and%20Kashmir&page=4&size=200"
    }
  },
  "page" : {
    "size" : 200,
    "totalElements" : 839,
    "totalPages" : 5,
    "number" : 4
  }
}