{
  "_embedded" : {
    "facility" : [ {
      "createdDate" : "2017-11-06T11:15:09.032+0000",
      "lastModifiedDate" : "2017-11-06T11:15:09.032+0000",
      "uuid" : "6c17b7ec-f896-43d6-808e-bb440f9416de",
      "inactive" : false,
      "name" : "Nurpur PHC",
      "_links" : {
        "self" : {
          "href" : "/22688"
        },
        "facilityTypeUUID" : {
          "href" : "ceff9b6e-c123-465b-a6da-2ed9d41c1921"
        },
        "districtUUID" : {
          "href" : "99f31fb6-e34a-4745-89a7-c59f3bb27ddc"
        },
        "facilityType" : {
          "href" : "/22688/facilityType"
        },
        "district" : {
          "href" : "/22688/district"
        }
      }
    }, {
      "createdDate" : "2017-11-06T11:15:09.121+0000",
      "lastModifiedDate" : "2017-11-06T11:15:09.121+0000",
      "uuid" : "fc3f6231-3297-44b5-a383-8368012291cd",
      "inactive" : false,
      "name" : "Moulpur RH",
      "_links" : {
        "self" : {
          "href" : "/22689"
        },
        "facilityTypeUUID" : {
          "href" : "c24f8e2e-8d5f-4653-9a7b-0072ed416603"
        },
        "districtUUID" : {
          "href" : "99f31fb6-e34a-4745-89a7-c59f3bb27ddc"
        },
        "facilityType" : {
          "href" : "/22689/facilityType"
        },
        "district" : {
          "href" : "/22689/district"
        }
      }
    } ]
  },
  "_links" : {
    "first" : {
      "href" : "/search/lastModifiedByState?lastModifiedDate=1900-01-01T00:00:00.001Z&name=West%20Bengal&page=0&size=200"
    },
    "prev" : {
      "href" : "/search/lastModifiedByState?lastModifiedDate=1900-01-01T00:00:00.001Z&name=West%20Bengal&page=8&size=200"
    },
    "self" : {
      "href" : "/search/lastModifiedByState?lastModifiedDate=1900-01-01T00:00:00.001Z&size=200&page=9&name=West%20Bengal"
    },
    "last" : {
      "href" : "/search/lastModifiedByState?lastModifiedDate=1900-01-01T00:00:00.001Z&name=West%20Bengal&page=9&size=200"
    }
  },
  "page" : {
    "size" : 200,
    "totalElements" : 1802,
    "totalPages" : 10,
    "number" : 9
  }
}