{
  "_embedded" : {
    "facility" : [ {
      "createdDate" : "2017-11-06T11:00:48.238+0000",
      "lastModifiedDate" : "2017-11-06T11:00:48.238+0000",
      "uuid" : "d42b7086-c216-416c-858c-2b80a4517a5b",
      "inactive" : false,
      "name" : "URBA",
      "_links" : {
        "self" : {
          "href" : "/15881"
        },
        "facilityTypeUUID" : {
          "href" : "ceff9b6e-c123-465b-a6da-2ed9d41c1921"
        },
        "districtUUID" : {
          "href" : "7ee627d7-85c8-44d4-9c24-de2f40f3cd13"
        },
        "district" : {
          "href" : "/15881/district"
        },
        "facilityType" : {
          "href" : "/15881/facilityType"
        }
      }
    }, {
      "createdDate" : "2017-11-06T11:00:48.343+0000",
      "lastModifiedDate" : "2017-11-06T11:00:48.343+0000",
      "uuid" : "cd0d9f40-dcf8-41be-84b4-7223e1684bfd",
      "inactive" : false,
      "name" : "BANORA",
      "_links" : {
        "self" : {
          "href" : "/15882"
        },
        "facilityTypeUUID" : {
          "href" : "ceff9b6e-c123-465b-a6da-2ed9d41c1921"
        },
        "districtUUID" : {
          "href" : "7ee627d7-85c8-44d4-9c24-de2f40f3cd13"
        },
        "district" : {
          "href" : "/15882/district"
        },
        "facilityType" : {
          "href" : "/15882/facilityType"
        }
      }
    }, {
      "createdDate" : "2017-11-06T11:00:48.429+0000",
      "lastModifiedDate" : "2017-11-06T11:00:48.429+0000",
      "uuid" : "0d473261-01ec-4034-992d-aab795cc43ca",
      "inactive" : false,
      "name" : "Civil Hospital Kharsia",
      "_links" : {
        "self" : {
          "href" : "/15883"
        },
        "facilityTypeUUID" : {
          "href" : "6d8dd7dd-6210-4cbc-a205-628e77eb0aa5"
        },
        "districtUUID" : {
          "href" : "7ee627d7-85c8-44d4-9c24-de2f40f3cd13"
        },
        "district" : {
          "href" : "/15883/district"
        },
        "facilityType" : {
          "href" : "/15883/facilityType"
        }
      }
    }, {
      "createdDate" : "2017-11-06T11:00:48.521+0000",
      "lastModifiedDate" : "2017-11-06T11:00:48.521+0000",
      "uuid" : "512b2ebb-e7a0-4a44-b3db-9581bec20fdc",
      "inactive" : false,
      "name" : "KAYA",
      "_links" : {
        "self" : {
          "href" : "/15884"
        },
        "facilityTypeUUID" : {
          "href" : "ceff9b6e-c123-465b-a6da-2ed9d41c1921"
        },
        "districtUUID" : {
          "href" : "7ee627d7-85c8-44d4-9c24-de2f40f3cd13"
        },
        "district" : {
          "href" : "/15884/district"
        },
        "facilityType" : {
          "href" : "/15884/facilityType"
        }
      }
    }, {
      "createdDate" : "2017-11-06T11:00:48.612+0000",
      "lastModifiedDate" : "2017-11-06T11:00:48.612+0000",
      "uuid" : "3ed2b0ff-4c52-4529-b59c-7a7dc1eba269",
      "inactive" : false,
      "name" : "NAURANGPUR",
      "_links" : {
        "self" : {
          "href" : "/15885"
        },
        "facilityTypeUUID" : {
          "href" : "ceff9b6e-c123-465b-a6da-2ed9d41c1921"
        },
        "districtUUID" : {
          "href" : "7ee627d7-85c8-44d4-9c24-de2f40f3cd13"
        },
        "district" : {
          "href" : "/15885/district"
        },
        "facilityType" : {
          "href" : "/15885/facilityType"
        }
      }
    }, {
      "createdDate" : "2017-11-06T11:00:48.698+0000",
      "lastModifiedDate" : "2017-11-06T11:00:48.698+0000",
      "uuid" : "b25288c4-97b4-4b04-a1f5-3a5c30864c3d",
      "inactive" : false,
      "name" : "GANPATPUR",
      "_links" : {
        "self" : {
          "href" : "/15886"
        },
        "facilityTypeUUID" : {
          "href" : "ceff9b6e-c123-465b-a6da-2ed9d41c1921"
        },
        "districtUUID" : {
          "href" : "7ee627d7-85c8-44d4-9c24-de2f40f3cd13"
        },
        "district" : {
          "href" : "/15886/district"
        },
        "facilityType" : {
          "href" : "/15886/facilityType"
        }
      }
    }, {
      "createdDate" : "2017-11-06T11:00:48.797+0000",
      "lastModifiedDate" : "2017-11-06T11:00:48.797+0000",
      "uuid" : "ff3c7f09-b531-44f3-b4fa-1d15f465e663",
      "inactive" : false,
      "name" : "LARIPANI",
      "_links" : {
        "self" : {
          "href" : "/15887"
        },
        "facilityTypeUUID" : {
          "href" : "ceff9b6e-c123-465b-a6da-2ed9d41c1921"
        },
        "districtUUID" : {
          "href" : "7ee627d7-85c8-44d4-9c24-de2f40f3cd13"
        },
        "district" : {
          "href" : "/15887/district"
        },
        "facilityType" : {
          "href" : "/15887/facilityType"
        }
      }
    } ]
  },
  "_links" : {
    "first" : {
      "href" : "/search/lastModifiedByState?lastModifiedDate=1900-01-01T00:00:00.001Z&name=Chhattisgarh&page=0&size=200"
    },
    "prev" : {
      "href" : "/search/lastModifiedByState?lastModifiedDate=1900-01-01T00:00:00.001Z&name=Chhattisgarh&page=4&size=200"
    },
    "self" : {
      "href" : "/search/lastModifiedByState?lastModifiedDate=1900-01-01T00:00:00.001Z&size=200&page=5&name=Chhattisgarh"
    },
    "last" : {
      "href" : "/search/lastModifiedByState?lastModifiedDate=1900-01-01T00:00:00.001Z&name=Chhattisgarh&page=5&size=200"
    }
  },
  "page" : {
    "size" : 200,
    "totalElements" : 1007,
    "totalPages" : 6,
    "number" : 5
  }
}