{
  "_embedded" : {
    "facility" : [ {
      "createdDate" : "2017-11-06T10:43:06.979+0000",
      "lastModifiedDate" : "2017-11-06T10:43:06.979+0000",
      "uuid" : "cb95dd62-aa0d-4369-8d74-fd89d5e043a7",
      "inactive" : false,
      "name" : "CHC DUBBAK",
      "_links" : {
        "self" : {
          "href" : "/8080"
        },
        "facilityTypeUUID" : {
          "href" : "c24f8e2e-8d5f-4653-9a7b-0072ed416603"
        },
        "districtUUID" : {
          "href" : "9857e9f5-3764-4d2e-8d4b-9e6f65dd058b"
        },
        "district" : {
          "href" : "/8080/district"
        },
        "facilityType" : {
          "href" : "/8080/facilityType"
        }
      }
    }, {
      "createdDate" : "2017-11-06T10:43:07.069+0000",
      "lastModifiedDate" : "2017-11-06T10:43:07.069+0000",
      "uuid" : "abb5d913-d36a-4d4e-817c-eb6bd86ec2f2",
      "inactive" : false,
      "name" : "CHINTALCHERVU",
      "_links" : {
        "self" : {
          "href" : "/8081"
        },
        "facilityTypeUUID" : {
          "href" : "ceff9b6e-c123-465b-a6da-2ed9d41c1921"
        },
        "districtUUID" : {
          "href" : "9857e9f5-3764-4d2e-8d4b-9e6f65dd058b"
        },
        "district" : {
          "href" : "/8081/district"
        },
        "facilityType" : {
          "href" : "/8081/facilityType"
        }
      }
    }, {
      "createdDate" : "2017-11-06T10:43:07.164+0000",
      "lastModifiedDate" : "2017-11-06T10:43:07.164+0000",
      "uuid" : "1c666ddd-280a-45e4-b611-83a792563910",
      "inactive" : false,
      "name" : "PAPANNAPET",
      "_links" : {
        "self" : {
          "href" : "/8082"
        },
        "facilityTypeUUID" : {
          "href" : "ceff9b6e-c123-465b-a6da-2ed9d41c1921"
        },
        "districtUUID" : {
          "href" : "9857e9f5-3764-4d2e-8d4b-9e6f65dd058b"
        },
        "district" : {
          "href" : "/8082/district"
        },
        "facilityType" : {
          "href" : "/8082/facilityType"
        }
      }
    }, {
      "createdDate" : "2017-11-06T10:43:07.260+0000",
      "lastModifiedDate" : "2017-11-06T10:43:07.260+0000",
      "uuid" : "5d56328c-b90c-4008-a12e-efb53b5447ab",
      "inactive" : false,
      "name" : "DOULTHABAD G",
      "_links" : {
        "self" : {
          "href" : "/8083"
        },
        "facilityTypeUUID" : {
          "href" : "ceff9b6e-c123-465b-a6da-2ed9d41c1921"
        },
        "districtUUID" : {
          "href" : "9857e9f5-3764-4d2e-8d4b-9e6f65dd058b"
        },
        "district" : {
          "href" : "/8083/district"
        },
        "facilityType" : {
          "href" : "/8083/facilityType"
        }
      }
    }, {
      "createdDate" : "2017-11-06T10:43:07.352+0000",
      "lastModifiedDate" : "2017-11-06T10:43:07.352+0000",
      "uuid" : "4d6c6f81-af15-4fb3-be94-18a5e2e97805",
      "inactive" : false,
      "name" : "KHANUKUNTA",
      "_links" : {
        "self" : {
          "href" : "/8084"
        },
        "facilityTypeUUID" : {
          "href" : "ceff9b6e-c123-465b-a6da-2ed9d41c1921"
        },
        "districtUUID" : {
          "href" : "9857e9f5-3764-4d2e-8d4b-9e6f65dd058b"
        },
        "district" : {
          "href" : "/8084/district"
        },
        "facilityType" : {
          "href" : "/8084/facilityType"
        }
      }
    }, {
      "createdDate" : "2017-11-06T10:43:07.444+0000",
      "lastModifiedDate" : "2017-11-06T10:43:07.444+0000",
      "uuid" : "1d87bdff-14f4-4fde-8d7c-969f7540a5e1",
      "inactive" : false,
      "name" : "TOOPRAN",
      "_links" : {
        "self" : {
          "href" : "/8085"
        },
        "facilityTypeUUID" : {
          "href" : "ceff9b6e-c123-465b-a6da-2ed9d41c1921"
        },
        "districtUUID" : {
          "href" : "9857e9f5-3764-4d2e-8d4b-9e6f65dd058b"
        },
        "district" : {
          "href" : "/8085/district"
        },
        "facilityType" : {
          "href" : "/8085/facilityType"
        }
      }
    }, {
      "createdDate" : "2017-11-06T10:43:07.536+0000",
      "lastModifiedDate" : "2017-11-06T10:43:07.536+0000",
      "uuid" : "3ad2eb9f-4d0c-4c96-9c1e-0eaeff10f16c",
      "inactive" : false,
      "name" : "TEEGUL",
      "_links" : {
        "self" : {
          "href" : "/8086"
        },
        "facilityTypeUUID" : {
          "href" : "ceff9b6e-c123-465b-a6da-2ed9d41c1921"
        },
        "districtUUID" : {
          "href" : "9857e9f5-3764-4d2e-8d4b-9e6f65dd058b"
        },
        "district" : {
          "href" : "/8086/district"
        },
        "facilityType" : {
          "href" : "/8086/facilityType"
        }
      }
    }, {
      "createdDate" : "2017-11-06T10:43:07.630+0000",
      "lastModifiedDate" : "2017-11-06T10:43:07.630+0000",
      "uuid" : "25512765-977d-49a7-ab59-5e81428d7c95",
      "inactive" : false,
      "name" : "CHC NARSAPUR",
      "_links" : {
        "self" : {
          "href" : "/8087"
        },
        "facilityTypeUUID" : {
          "href" : "c24f8e2e-8d5f-4653-9a7b-0072ed416603"
        },
        "districtUUID" : {
          "href" : "9857e9f5-3764-4d2e-8d4b-9e6f65dd058b"
        },
        "district" : {
          "href" : "/8087/district"
        },
        "facilityType" : {
          "href" : "/8087/facilityType"
        }
      }
    } ]
  },
  "_links" : {
    "first" : {
      "href" : "/search/lastModifiedByState?lastModifiedDate=1900-01-01T00:00:00.001Z&name=Telangana&page=0&size=200"
    },
    "prev" : {
      "href" : "/search/lastModifiedByState?lastModifiedDate=1900-01-01T00:00:00.001Z&name=Telangana&page=4&size=200"
    },
    "self" : {
      "href" : "/search/lastModifiedByState?lastModifiedDate=1900-01-01T00:00:00.001Z&size=200&page=5&name=Telangana"
    },
    "last" : {
      "href" : "/search/lastModifiedByState?lastModifiedDate=1900-01-01T00:00:00.001Z&name=Telangana&page=5&size=200"
    }
  },
  "page" : {
    "size" : 200,
    "totalElements" : 1008,
    "totalPages" : 6,
    "number" : 5
  }
}