{
  "_embedded" : {
    "checkpoint" : [ {
      "createdDate" : "2017-11-29T09:58:43.867+0000",
      "lastModifiedDate" : "2017-11-29T09:58:43.867+0000",
      "uuid" : "9e315ac8-f225-4d10-a76c-5d5f39abf69d",
      "inactive" : false,
      "name" : "Checks mother’s history related to maternal infection",
      "meansOfVerification" : "",
      "assessmentMethodObservation" : false,
      "assessmentMethodStaffInterview" : false,
      "assessmentMethodPatientInterview" : false,
      "assessmentMethodRecordReview" : false,
      "sortOrder" : 2,
      "scoreLevels" : 2,
      "default" : true,
      "optional" : false,
      "_links" : {
        "self" : {
          "href" : "http://192.168.73.1:6001/api/checkpoint/14601"
        },
        "checklistUUID" : {
          "href" : "68137a5e-f62d-4304-b05f-b8f570e5153d"
        },
        "measurableElementUUID" : {
          "href" : "ef168bda-26af-48f8-88e5-ddcd82ff405d"
        },
        "state" : {
          "href" : "http://192.168.73.1:6001/api/checkpoint/14601/state"
        },
        "checklist" : {
          "href" : "http://192.168.73.1:6001/api/checkpoint/14601/checklist"
        },
        "measurableElement" : {
          "href" : "http://192.168.73.1:6001/api/checkpoint/14601/measurableElement"
        }
      }
    }, {
      "createdDate" : "2017-11-29T09:58:43.870+0000",
      "lastModifiedDate" : "2017-11-29T09:58:43.870+0000",
      "uuid" : "de0a338d-8aa8-4935-a7ba-d90cc1671cad",
      "inactive" : false,
      "name" : "Gives correct regimen of corticosteroid",
      "meansOfVerification" : "",
      "assessmentMethodObservation" : false,
      "assessmentMethodStaffInterview" : false,
      "assessmentMethodPatientInterview" : false,
      "assessmentMethodRecordReview" : false,
      "sortOrder" : 0,
      "scoreLevels" : 2,
      "default" : true,
      "optional" : false,
      "_links" : {
        "self" : {
          "href" : "http://192.168.73.1:6001/api/checkpoint/14602"
        },
        "checklistUUID" : {
          "href" : "68137a5e-f62d-4304-b05f-b8f570e5153d"
        },
        "measurableElementUUID" : {
          "href" : "abc81b1e-1a87-46d2-aa3f-2bf288872f0d"
        },
        "state" : {
          "href" : "http://192.168.73.1:6001/api/checkpoint/14602/state"
        },
        "checklist" : {
          "href" : "http://192.168.73.1:6001/api/checkpoint/14602/checklist"
        },
        "measurableElement" : {
          "href" : "http://192.168.73.1:6001/api/checkpoint/14602/measurableElement"
        }
      }
    }, {
      "createdDate" : "2017-11-29T09:58:43.872+0000",
      "lastModifiedDate" : "2017-11-29T09:58:43.872+0000",
      "uuid" : "076c09f3-e0f4-4111-9751-5879586b9d11",
      "inactive" : false,
      "name" : "Administers antenatal corticosteroids in pre term labour and conditions leading to pre term delivery (24-34 weeks)",
      "meansOfVerification" : "",
      "assessmentMethodObservation" : false,
      "assessmentMethodStaffInterview" : false,
      "assessmentMethodPatientInterview" : false,
      "assessmentMethodRecordReview" : false,
      "sortOrder" : 1,
      "scoreLevels" : 2,
      "default" : true,
      "optional" : false,
      "_links" : {
        "self" : {
          "href" : "http://192.168.73.1:6001/api/checkpoint/14603"
        },
        "checklistUUID" : {
          "href" : "68137a5e-f62d-4304-b05f-b8f570e5153d"
        },
        "measurableElementUUID" : {
          "href" : "abc81b1e-1a87-46d2-aa3f-2bf288872f0d"
        },
        "state" : {
          "href" : "http://192.168.73.1:6001/api/checkpoint/14603/state"
        },
        "checklist" : {
          "href" : "http://192.168.73.1:6001/api/checkpoint/14603/checklist"
        },
        "measurableElement" : {
          "href" : "http://192.168.73.1:6001/api/checkpoint/14603/measurableElement"
        }
      }
    }, {
      "createdDate" : "2017-11-29T09:58:43.873+0000",
      "lastModifiedDate" : "2017-11-29T09:58:43.873+0000",
      "uuid" : "cf34ea9e-606c-45cb-a576-ce35b019066c",
      "inactive" : false,
      "name" : "Corticosteroids (Inj Dexamethsone/Betamethasone) is available",
      "meansOfVerification" : "",
      "assessmentMethodObservation" : false,
      "assessmentMethodStaffInterview" : false,
      "assessmentMethodPatientInterview" : false,
      "assessmentMethodRecordReview" : false,
      "sortOrder" : 2,
      "scoreLevels" : 2,
      "default" : true,
      "optional" : false,
      "_links" : {
        "self" : {
          "href" : "http://192.168.73.1:6001/api/checkpoint/14604"
        },
        "checklistUUID" : {
          "href" : "68137a5e-f62d-4304-b05f-b8f570e5153d"
        },
        "measurableElementUUID" : {
          "href" : "abc81b1e-1a87-46d2-aa3f-2bf288872f0d"
        },
        "state" : {
          "href" : "http://192.168.73.1:6001/api/checkpoint/14604/state"
        },
        "checklist" : {
          "href" : "http://192.168.73.1:6001/api/checkpoint/14604/checklist"
        },
        "measurableElement" : {
          "href" : "http://192.168.73.1:6001/api/checkpoint/14604/measurableElement"
        }
      }
    }, {
      "createdDate" : "2017-11-29T09:58:43.875+0000",
      "lastModifiedDate" : "2017-11-29T09:58:43.875+0000",
      "uuid" : "c1bfb893-c41d-4c9d-9239-2571e3ded0d2",
      "inactive" : false,
      "name" : "Correctly estimates gestational age to confirm that labour is pre term through fundal height/LMP/USG (if available)",
      "meansOfVerification" : "",
      "assessmentMethodObservation" : false,
      "assessmentMethodStaffInterview" : false,
      "assessmentMethodPatientInterview" : false,
      "assessmentMethodRecordReview" : false,
      "sortOrder" : 0,
      "scoreLevels" : 2,
      "default" : true,
      "optional" : false,
      "_links" : {
        "self" : {
          "href" : "http://192.168.73.1:6001/api/checkpoint/14605"
        },
        "checklistUUID" : {
          "href" : "68137a5e-f62d-4304-b05f-b8f570e5153d"
        },
        "measurableElementUUID" : {
          "href" : "891ce647-4e4f-4a4a-b2ba-b853975991a8"
        },
        "state" : {
          "href" : "http://192.168.73.1:6001/api/checkpoint/14605/state"
        },
        "checklist" : {
          "href" : "http://192.168.73.1:6001/api/checkpoint/14605/checklist"
        },
        "measurableElement" : {
          "href" : "http://192.168.73.1:6001/api/checkpoint/14605/measurableElement"
        }
      }
    }, {
      "createdDate" : "2017-11-29T09:58:43.877+0000",
      "lastModifiedDate" : "2017-11-29T09:58:43.877+0000",
      "uuid" : "ecaa9a57-23c3-4047-9220-8e33bd971ff7",
      "inactive" : false,
      "name" : "Ensures specialist attention (care by Pediatrician)",
      "meansOfVerification" : "",
      "assessmentMethodObservation" : false,
      "assessmentMethodStaffInterview" : false,
      "assessmentMethodPatientInterview" : false,
      "assessmentMethodRecordReview" : false,
      "sortOrder" : 0,
      "scoreLevels" : 2,
      "default" : true,
      "optional" : false,
      "_links" : {
        "self" : {
          "href" : "http://192.168.73.1:6001/api/checkpoint/14606"
        },
        "checklistUUID" : {
          "href" : "68137a5e-f62d-4304-b05f-b8f570e5153d"
        },
        "measurableElementUUID" : {
          "href" : "c6f7f1c8-fa95-470f-9d99-36cbc9aa1962"
        },
        "state" : {
          "href" : "http://192.168.73.1:6001/api/checkpoint/14606/state"
        },
        "checklist" : {
          "href" : "http://192.168.73.1:6001/api/checkpoint/14606/checklist"
        },
        "measurableElement" : {
          "href" : "http://192.168.73.1:6001/api/checkpoint/14606/measurableElement"
        }
      }
    }, {
      "createdDate" : "2017-11-29T09:58:43.879+0000",
      "lastModifiedDate" : "2017-11-29T09:58:43.879+0000",
      "uuid" : "dbe2faac-63de-4c51-b98a-603116195c3b",
      "inactive" : false,
      "name" : "Identifies condition that may lead to pre term delivery (severe Pre-eclampsia, Eclampsia, APH, Pre term Pre labour Rupture Of Membrane) and records them,",
      "meansOfVerification" : "",
      "assessmentMethodObservation" : false,
      "assessmentMethodStaffInterview" : false,
      "assessmentMethodPatientInterview" : false,
      "assessmentMethodRecordReview" : false,
      "sortOrder" : 0,
      "scoreLevels" : 2,
      "default" : true,
      "optional" : false,
      "_links" : {
        "self" : {
          "href" : "http://192.168.73.1:6001/api/checkpoint/14607"
        },
        "checklistUUID" : {
          "href" : "68137a5e-f62d-4304-b05f-b8f570e5153d"
        },
        "measurableElementUUID" : {
          "href" : "fed0873c-04df-4463-9f07-62e8a789ade1"
        },
        "state" : {
          "href" : "http://192.168.73.1:6001/api/checkpoint/14607/state"
        },
        "checklist" : {
          "href" : "http://192.168.73.1:6001/api/checkpoint/14607/checklist"
        },
        "measurableElement" : {
          "href" : "http://192.168.73.1:6001/api/checkpoint/14607/measurableElement"
        }
      }
    }, {
      "createdDate" : "2017-11-29T09:58:43.881+0000",
      "lastModifiedDate" : "2017-11-29T09:58:43.881+0000",
      "uuid" : "a215bf8d-83f5-4bdf-bdee-a65a2004d3ab",
      "inactive" : false,
      "name" : "Initiates bag and mask ventilation for 30 seconds if baby still not breathing",
      "meansOfVerification" : "",
      "assessmentMethodObservation" : false,
      "assessmentMethodStaffInterview" : false,
      "assessmentMethodPatientInterview" : false,
      "assessmentMethodRecordReview" : false,
      "sortOrder" : 0,
      "scoreLevels" : 2,
      "default" : true,
      "optional" : false,
      "_links" : {
        "self" : {
          "href" : "http://192.168.73.1:6001/api/checkpoint/14608"
        },
        "checklistUUID" : {
          "href" : "68137a5e-f62d-4304-b05f-b8f570e5153d"
        },
        "measurableElementUUID" : {
          "href" : "6646c33b-e9fd-4b61-8857-9c35da9a4afa"
        },
        "state" : {
          "href" : "http://192.168.73.1:6001/api/checkpoint/14608/state"
        },
        "checklist" : {
          "href" : "http://192.168.73.1:6001/api/checkpoint/14608/checklist"
        },
        "measurableElement" : {
          "href" : "http://192.168.73.1:6001/api/checkpoint/14608/measurableElement"
        }
      }
    }, {
      "createdDate" : "2017-11-29T09:58:43.882+0000",
      "lastModifiedDate" : "2017-11-29T09:58:43.882+0000",
      "uuid" : "ecfecf22-2019-4fbe-8ad3-5b414405ff41",
      "inactive" : false,
      "name" : "Functional ambu bag with mask for term baby is available",
      "meansOfVerification" : "",
      "assessmentMethodObservation" : false,
      "assessmentMethodStaffInterview" : false,
      "assessmentMethodPatientInterview" : false,
      "assessmentMethodRecordReview" : false,
      "sortOrder" : 1,
      "scoreLevels" : 2,
      "default" : true,
      "optional" : false,
      "_links" : {
        "self" : {
          "href" : "http://192.168.73.1:6001/api/checkpoint/14609"
        },
        "checklistUUID" : {
          "href" : "68137a5e-f62d-4304-b05f-b8f570e5153d"
        },
        "measurableElementUUID" : {
          "href" : "6646c33b-e9fd-4b61-8857-9c35da9a4afa"
        },
        "state" : {
          "href" : "http://192.168.73.1:6001/api/checkpoint/14609/state"
        },
        "checklist" : {
          "href" : "http://192.168.73.1:6001/api/checkpoint/14609/checklist"
        },
        "measurableElement" : {
          "href" : "http://192.168.73.1:6001/api/checkpoint/14609/measurableElement"
        }
      }
    }, {
      "createdDate" : "2017-11-29T09:58:43.883+0000",
      "lastModifiedDate" : "2017-11-29T09:58:43.883+0000",
      "uuid" : "6e5de250-3de3-46eb-a9e7-32f3ac7f691f",
      "inactive" : false,
      "name" : "Functional ambu bag with mask for pre-term baby is available",
      "meansOfVerification" : "",
      "assessmentMethodObservation" : false,
      "assessmentMethodStaffInterview" : false,
      "assessmentMethodPatientInterview" : false,
      "assessmentMethodRecordReview" : false,
      "sortOrder" : 2,
      "scoreLevels" : 2,
      "default" : true,
      "optional" : false,
      "_links" : {
        "self" : {
          "href" : "http://192.168.73.1:6001/api/checkpoint/14610"
        },
        "checklistUUID" : {
          "href" : "68137a5e-f62d-4304-b05f-b8f570e5153d"
        },
        "measurableElementUUID" : {
          "href" : "6646c33b-e9fd-4b61-8857-9c35da9a4afa"
        },
        "state" : {
          "href" : "http://192.168.73.1:6001/api/checkpoint/14610/state"
        },
        "checklist" : {
          "href" : "http://192.168.73.1:6001/api/checkpoint/14610/checklist"
        },
        "measurableElement" : {
          "href" : "http://192.168.73.1:6001/api/checkpoint/14610/measurableElement"
        }
      }
    }, {
      "createdDate" : "2017-11-29T09:58:43.885+0000",
      "lastModifiedDate" : "2017-11-29T09:58:43.885+0000",
      "uuid" : "02567a02-cca3-4dc7-a148-9394417e0e41",
      "inactive" : false,
      "name" : "Assesses breathing, if still not breathing continues bag and mask ventilation; starts oxygen",
      "meansOfVerification" : "",
      "assessmentMethodObservation" : false,
      "assessmentMethodStaffInterview" : false,
      "assessmentMethodPatientInterview" : false,
      "assessmentMethodRecordReview" : false,
      "sortOrder" : 0,
      "scoreLevels" : 2,
      "default" : true,
      "optional" : false,
      "_links" : {
        "self" : {
          "href" : "http://192.168.73.1:6001/api/checkpoint/14611"
        },
        "checklistUUID" : {
          "href" : "68137a5e-f62d-4304-b05f-b8f570e5153d"
        },
        "measurableElementUUID" : {
          "href" : "24b390fe-57f0-4382-86e4-d4985082d365"
        },
        "state" : {
          "href" : "http://192.168.73.1:6001/api/checkpoint/14611/state"
        },
        "checklist" : {
          "href" : "http://192.168.73.1:6001/api/checkpoint/14611/checklist"
        },
        "measurableElement" : {
          "href" : "http://192.168.73.1:6001/api/checkpoint/14611/measurableElement"
        }
      }
    }, {
      "createdDate" : "2017-11-29T09:58:43.886+0000",
      "lastModifiedDate" : "2017-11-29T09:58:43.886+0000",
      "uuid" : "b9617815-f8d7-4998-8db8-d6753fb117b6",
      "inactive" : false,
      "name" : "Functional oxygen cylinder (with wrench) with new born mask is available",
      "meansOfVerification" : "",
      "assessmentMethodObservation" : false,
      "assessmentMethodStaffInterview" : false,
      "assessmentMethodPatientInterview" : false,
      "assessmentMethodRecordReview" : false,
      "sortOrder" : 1,
      "scoreLevels" : 2,
      "default" : true,
      "optional" : false,
      "_links" : {
        "self" : {
          "href" : "http://192.168.73.1:6001/api/checkpoint/14612"
        },
        "checklistUUID" : {
          "href" : "68137a5e-f62d-4304-b05f-b8f570e5153d"
        },
        "measurableElementUUID" : {
          "href" : "24b390fe-57f0-4382-86e4-d4985082d365"
        },
        "state" : {
          "href" : "http://192.168.73.1:6001/api/checkpoint/14612/state"
        },
        "checklist" : {
          "href" : "http://192.168.73.1:6001/api/checkpoint/14612/checklist"
        },
        "measurableElement" : {
          "href" : "http://192.168.73.1:6001/api/checkpoint/14612/measurableElement"
        }
      }
    }, {
      "createdDate" : "2017-11-29T09:58:43.887+0000",
      "lastModifiedDate" : "2017-11-29T09:58:43.887+0000",
      "uuid" : "2d471b57-dea8-4876-8953-a9082140eb88",
      "inactive" : false,
      "name" : "Calls for advance help/arranges referral",
      "meansOfVerification" : "",
      "assessmentMethodObservation" : false,
      "assessmentMethodStaffInterview" : false,
      "assessmentMethodPatientInterview" : false,
      "assessmentMethodRecordReview" : false,
      "sortOrder" : 2,
      "scoreLevels" : 2,
      "default" : true,
      "optional" : false,
      "_links" : {
        "self" : {
          "href" : "http://192.168.73.1:6001/api/checkpoint/14613"
        },
        "checklistUUID" : {
          "href" : "68137a5e-f62d-4304-b05f-b8f570e5153d"
        },
        "measurableElementUUID" : {
          "href" : "24b390fe-57f0-4382-86e4-d4985082d365"
        },
        "state" : {
          "href" : "http://192.168.73.1:6001/api/checkpoint/14613/state"
        },
        "checklist" : {
          "href" : "http://192.168.73.1:6001/api/checkpoint/14613/checklist"
        },
        "measurableElement" : {
          "href" : "http://192.168.73.1:6001/api/checkpoint/14613/measurableElement"
        }
      }
    }, {
      "createdDate" : "2017-11-29T09:58:43.888+0000",
      "lastModifiedDate" : "2017-11-29T09:58:43.888+0000",
      "uuid" : "e65bd6a3-859b-4ef1-ba36-e5a2ccce069d",
      "inactive" : false,
      "name" : "Checks heart rate/cord pulsation",
      "meansOfVerification" : "",
      "assessmentMethodObservation" : false,
      "assessmentMethodStaffInterview" : false,
      "assessmentMethodPatientInterview" : false,
      "assessmentMethodRecordReview" : false,
      "sortOrder" : 3,
      "scoreLevels" : 2,
      "default" : true,
      "optional" : false,
      "_links" : {
        "self" : {
          "href" : "http://192.168.73.1:6001/api/checkpoint/14614"
        },
        "checklistUUID" : {
          "href" : "68137a5e-f62d-4304-b05f-b8f570e5153d"
        },
        "measurableElementUUID" : {
          "href" : "24b390fe-57f0-4382-86e4-d4985082d365"
        },
        "state" : {
          "href" : "http://192.168.73.1:6001/api/checkpoint/14614/state"
        },
        "checklist" : {
          "href" : "http://192.168.73.1:6001/api/checkpoint/14614/checklist"
        },
        "measurableElement" : {
          "href" : "http://192.168.73.1:6001/api/checkpoint/14614/measurableElement"
        }
      }
    }, {
      "createdDate" : "2017-11-29T09:58:43.890+0000",
      "lastModifiedDate" : "2017-11-29T09:58:43.890+0000",
      "uuid" : "bec00406-8cf0-4a68-ab61-a98144ae92e1",
      "inactive" : false,
      "name" : "Suction equipment/mucus extractor is available",
      "meansOfVerification" : "",
      "assessmentMethodObservation" : false,
      "assessmentMethodStaffInterview" : false,
      "assessmentMethodPatientInterview" : false,
      "assessmentMethodRecordReview" : false,
      "sortOrder" : 0,
      "scoreLevels" : 2,
      "default" : true,
      "optional" : false,
      "_links" : {
        "self" : {
          "href" : "http://192.168.73.1:6001/api/checkpoint/14615"
        },
        "checklistUUID" : {
          "href" : "68137a5e-f62d-4304-b05f-b8f570e5153d"
        },
        "measurableElementUUID" : {
          "href" : "1bb2ec3f-cd32-4517-9dc0-dadf7b4210bd"
        },
        "state" : {
          "href" : "http://192.168.73.1:6001/api/checkpoint/14615/state"
        },
        "checklist" : {
          "href" : "http://192.168.73.1:6001/api/checkpoint/14615/checklist"
        },
        "measurableElement" : {
          "href" : "http://192.168.73.1:6001/api/checkpoint/14615/measurableElement"
        }
      }
    }, {
      "createdDate" : "2017-11-29T09:58:43.891+0000",
      "lastModifiedDate" : "2017-11-29T09:58:43.891+0000",
      "uuid" : "cb8ad741-3cec-4162-b780-35cb8e63c86c",
      "inactive" : false,
      "name" : "Shoulder roll is available",
      "meansOfVerification" : "",
      "assessmentMethodObservation" : false,
      "assessmentMethodStaffInterview" : false,
      "assessmentMethodPatientInterview" : false,
      "assessmentMethodRecordReview" : false,
      "sortOrder" : 1,
      "scoreLevels" : 2,
      "default" : true,
      "optional" : false,
      "_links" : {
        "self" : {
          "href" : "http://192.168.73.1:6001/api/checkpoint/14616"
        },
        "checklistUUID" : {
          "href" : "68137a5e-f62d-4304-b05f-b8f570e5153d"
        },
        "measurableElementUUID" : {
          "href" : "1bb2ec3f-cd32-4517-9dc0-dadf7b4210bd"
        },
        "state" : {
          "href" : "http://192.168.73.1:6001/api/checkpoint/14616/state"
        },
        "checklist" : {
          "href" : "http://192.168.73.1:6001/api/checkpoint/14616/checklist"
        },
        "measurableElement" : {
          "href" : "http://192.168.73.1:6001/api/checkpoint/14616/measurableElement"
        }
      }
    }, {
      "createdDate" : "2017-11-29T09:58:43.892+0000",
      "lastModifiedDate" : "2017-11-29T09:58:43.892+0000",
      "uuid" : "c8507129-7e9c-44a7-bb84-17b736afeb59",
      "inactive" : false,
      "name" : "Performs following steps within first 30 seconds under radiant warmer: Positioning, Suctioning, Stimulation, Repositioning (PSSR)",
      "meansOfVerification" : "",
      "assessmentMethodObservation" : false,
      "assessmentMethodStaffInterview" : false,
      "assessmentMethodPatientInterview" : false,
      "assessmentMethodRecordReview" : false,
      "sortOrder" : 2,
      "scoreLevels" : 2,
      "default" : true,
      "optional" : false,
      "_links" : {
        "self" : {
          "href" : "http://192.168.73.1:6001/api/checkpoint/14617"
        },
        "checklistUUID" : {
          "href" : "68137a5e-f62d-4304-b05f-b8f570e5153d"
        },
        "measurableElementUUID" : {
          "href" : "1bb2ec3f-cd32-4517-9dc0-dadf7b4210bd"
        },
        "state" : {
          "href" : "http://192.168.73.1:6001/api/checkpoint/14617/state"
        },
        "checklist" : {
          "href" : "http://192.168.73.1:6001/api/checkpoint/14617/checklist"
        },
        "measurableElement" : {
          "href" : "http://192.168.73.1:6001/api/checkpoint/14617/measurableElement"
        }
      }
    }, {
      "createdDate" : "2017-11-29T09:58:43.893+0000",
      "lastModifiedDate" : "2017-11-29T09:58:43.893+0000",
      "uuid" : "b90169da-265a-4e54-a2e2-c1a22e6decd3",
      "inactive" : false,
      "name" : "Performs following steps within first 30 seconds on mothers abdomen: Suction if indicated; dries the baby; immediate clamping and cutting the cord and shifting to radiant warmer if still not breathing",
      "meansOfVerification" : "",
      "assessmentMethodObservation" : false,
      "assessmentMethodStaffInterview" : false,
      "assessmentMethodPatientInterview" : false,
      "assessmentMethodRecordReview" : false,
      "sortOrder" : 3,
      "scoreLevels" : 2,
      "default" : true,
      "optional" : false,
      "_links" : {
        "self" : {
          "href" : "http://192.168.73.1:6001/api/checkpoint/14618"
        },
        "checklistUUID" : {
          "href" : "68137a5e-f62d-4304-b05f-b8f570e5153d"
        },
        "measurableElementUUID" : {
          "href" : "1bb2ec3f-cd32-4517-9dc0-dadf7b4210bd"
        },
        "state" : {
          "href" : "http://192.168.73.1:6001/api/checkpoint/14618/state"
        },
        "checklist" : {
          "href" : "http://192.168.73.1:6001/api/checkpoint/14618/checklist"
        },
        "measurableElement" : {
          "href" : "http://192.168.73.1:6001/api/checkpoint/14618/measurableElement"
        }
      }
    } ]
  },
  "_links" : {
    "first" : {
      "href" : "http://192.168.73.1:6001/api/checkpoint/search/lastModified?lastModifiedDate=1900-01-01T00:00:00.001Z&page=0&size=200"
    },
    "prev" : {
      "href" : "http://192.168.73.1:6001/api/checkpoint/search/lastModified?lastModifiedDate=1900-01-01T00:00:00.001Z&page=72&size=200"
    },
    "self" : {
      "href" : "http://192.168.73.1:6001/api/checkpoint/search/lastModified?lastModifiedDate=1900-01-01T00:00:00.001Z&size=200&page=73"
    },
    "last" : {
      "href" : "http://192.168.73.1:6001/api/checkpoint/search/lastModified?lastModifiedDate=1900-01-01T00:00:00.001Z&page=73&size=200"
    }
  },
  "page" : {
    "size" : 200,
    "totalElements" : 14618,
    "totalPages" : 74,
    "number" : 73
  }
}