{
  "_embedded" : {
    "facility" : [ {
      "createdDate" : "2017-11-06T11:11:21.734+0000",
      "lastModifiedDate" : "2017-11-06T11:11:21.734+0000",
      "uuid" : "f61637de-e780-4ffc-8439-4d746500ec1f",
      "inactive" : false,
      "name" : "Sunki",
      "_links" : {
        "self" : {
          "href" : "/20887"
        },
        "facilityTypeUUID" : {
          "href" : "ceff9b6e-c123-465b-a6da-2ed9d41c1921"
        },
        "districtUUID" : {
          "href" : "781071c6-4aec-435d-992a-7795c9edd988"
        },
        "facilityType" : {
          "href" : "/20887/facilityType"
        },
        "district" : {
          "href" : "/20887/district"
        }
      }
    } ]
  },
  "_links" : {
    "first" : {
      "href" : "/search/lastModifiedByState?lastModifiedDate=1900-01-01T00:00:00.001Z&name=Odisha&page=0&size=200"
    },
    "prev" : {
      "href" : "/search/lastModifiedByState?lastModifiedDate=1900-01-01T00:00:00.001Z&name=Odisha&page=8&size=200"
    },
    "self" : {
      "href" : "/search/lastModifiedByState?lastModifiedDate=1900-01-01T00:00:00.001Z&size=200&page=9&name=Odisha"
    },
    "last" : {
      "href" : "/search/lastModifiedByState?lastModifiedDate=1900-01-01T00:00:00.001Z&name=Odisha&page=9&size=200"
    }
  },
  "page" : {
    "size" : 200,
    "totalElements" : 1801,
    "totalPages" : 10,
    "number" : 9
  }
}