{
  "_embedded" : {
    "facility" : [ {
      "createdDate" : "2017-11-06T11:52:44.855+0000",
      "lastModifiedDate" : "2017-11-06T11:52:44.855+0000",
      "uuid" : "4d579efc-53a0-4481-b643-aad7b432e300",
      "inactive" : false,
      "name" : "Kandi",
      "_links" : {
        "self" : {
          "href" : "/38742"
        },
        "facilityTypeUUID" : {
          "href" : "ceff9b6e-c123-465b-a6da-2ed9d41c1921"
        },
        "districtUUID" : {
          "href" : "92ebbca1-f831-46be-bb62-83d1b8d56e3f"
        },
        "facilityType" : {
          "href" : "/38742/facilityType"
        },
        "district" : {
          "href" : "/38742/district"
        }
      }
    }, {
      "createdDate" : "2017-11-06T11:52:44.943+0000",
      "lastModifiedDate" : "2017-11-06T11:52:44.943+0000",
      "uuid" : "0294173d-10d3-4db5-814e-b60e5d3fbb24",
      "inactive" : false,
      "name" : "Danda",
      "_links" : {
        "self" : {
          "href" : "/38743"
        },
        "facilityTypeUUID" : {
          "href" : "ceff9b6e-c123-465b-a6da-2ed9d41c1921"
        },
        "districtUUID" : {
          "href" : "92ebbca1-f831-46be-bb62-83d1b8d56e3f"
        },
        "facilityType" : {
          "href" : "/38743/facilityType"
        },
        "district" : {
          "href" : "/38743/district"
        }
      }
    }, {
      "createdDate" : "2017-11-06T11:52:45.038+0000",
      "lastModifiedDate" : "2017-11-06T11:52:45.038+0000",
      "uuid" : "e917a7b8-c065-49d2-b9d6-e251c7669f02",
      "inactive" : false,
      "name" : "Meral",
      "_links" : {
        "self" : {
          "href" : "/38744"
        },
        "facilityTypeUUID" : {
          "href" : "c24f8e2e-8d5f-4653-9a7b-0072ed416603"
        },
        "districtUUID" : {
          "href" : "92ebbca1-f831-46be-bb62-83d1b8d56e3f"
        },
        "facilityType" : {
          "href" : "/38744/facilityType"
        },
        "district" : {
          "href" : "/38744/district"
        }
      }
    }, {
      "createdDate" : "2017-11-06T11:52:45.128+0000",
      "lastModifiedDate" : "2017-11-06T11:52:45.128+0000",
      "uuid" : "154cb3e1-6a95-4175-a983-04a4bba22225",
      "inactive" : false,
      "name" : "Medna",
      "_links" : {
        "self" : {
          "href" : "/38745"
        },
        "facilityTypeUUID" : {
          "href" : "ceff9b6e-c123-465b-a6da-2ed9d41c1921"
        },
        "districtUUID" : {
          "href" : "92ebbca1-f831-46be-bb62-83d1b8d56e3f"
        },
        "facilityType" : {
          "href" : "/38745/facilityType"
        },
        "district" : {
          "href" : "/38745/district"
        }
      }
    }, {
      "createdDate" : "2017-11-06T11:52:45.216+0000",
      "lastModifiedDate" : "2017-11-06T11:52:45.216+0000",
      "uuid" : "00577d5c-3b28-4f60-af72-dac75e277f57",
      "inactive" : false,
      "name" : "Ramkanda",
      "_links" : {
        "self" : {
          "href" : "/38746"
        },
        "facilityTypeUUID" : {
          "href" : "ceff9b6e-c123-465b-a6da-2ed9d41c1921"
        },
        "districtUUID" : {
          "href" : "92ebbca1-f831-46be-bb62-83d1b8d56e3f"
        },
        "facilityType" : {
          "href" : "/38746/facilityType"
        },
        "district" : {
          "href" : "/38746/district"
        }
      }
    }, {
      "createdDate" : "2017-11-06T11:52:45.306+0000",
      "lastModifiedDate" : "2017-11-06T11:52:45.306+0000",
      "uuid" : "faa5e7db-7823-452e-978e-b7a627018464",
      "inactive" : false,
      "name" : "Dandai",
      "_links" : {
        "self" : {
          "href" : "/38747"
        },
        "facilityTypeUUID" : {
          "href" : "ceff9b6e-c123-465b-a6da-2ed9d41c1921"
        },
        "districtUUID" : {
          "href" : "92ebbca1-f831-46be-bb62-83d1b8d56e3f"
        },
        "facilityType" : {
          "href" : "/38747/facilityType"
        },
        "district" : {
          "href" : "/38747/district"
        }
      }
    }, {
      "createdDate" : "2017-11-06T11:52:45.398+0000",
      "lastModifiedDate" : "2017-11-06T11:52:45.398+0000",
      "uuid" : "394e718c-294c-4755-80d6-b3909cf599e7",
      "inactive" : false,
      "name" : "Sahibganj Sadar Hospital",
      "_links" : {
        "self" : {
          "href" : "/38748"
        },
        "facilityTypeUUID" : {
          "href" : "f28c99d3-ba72-4a36-925a-cfa0c3bb6a63"
        },
        "districtUUID" : {
          "href" : "996b68b8-40d6-438e-94f6-2550882e613f"
        },
        "facilityType" : {
          "href" : "/38748/facilityType"
        },
        "district" : {
          "href" : "/38748/district"
        }
      }
    }, {
      "createdDate" : "2017-11-06T11:52:45.486+0000",
      "lastModifiedDate" : "2017-11-06T11:52:45.486+0000",
      "uuid" : "31157037-3370-4930-847f-15dbe057af6d",
      "inactive" : false,
      "name" : "Mirzachoki",
      "_links" : {
        "self" : {
          "href" : "/38749"
        },
        "facilityTypeUUID" : {
          "href" : "ceff9b6e-c123-465b-a6da-2ed9d41c1921"
        },
        "districtUUID" : {
          "href" : "996b68b8-40d6-438e-94f6-2550882e613f"
        },
        "facilityType" : {
          "href" : "/38749/facilityType"
        },
        "district" : {
          "href" : "/38749/district"
        }
      }
    }, {
      "createdDate" : "2017-11-06T11:52:45.575+0000",
      "lastModifiedDate" : "2017-11-06T11:52:45.575+0000",
      "uuid" : "36926c50-89a9-446e-86c2-72a2704ea34e",
      "inactive" : false,
      "name" : "Kotalpokhar",
      "_links" : {
        "self" : {
          "href" : "/38750"
        },
        "facilityTypeUUID" : {
          "href" : "ceff9b6e-c123-465b-a6da-2ed9d41c1921"
        },
        "districtUUID" : {
          "href" : "996b68b8-40d6-438e-94f6-2550882e613f"
        },
        "facilityType" : {
          "href" : "/38750/facilityType"
        },
        "district" : {
          "href" : "/38750/district"
        }
      }
    }, {
      "createdDate" : "2017-11-06T11:52:45.664+0000",
      "lastModifiedDate" : "2017-11-06T11:52:45.664+0000",
      "uuid" : "3cc28db5-161f-4685-8828-f9184916fa2a",
      "inactive" : false,
      "name" : "Borio",
      "_links" : {
        "self" : {
          "href" : "/38751"
        },
        "facilityTypeUUID" : {
          "href" : "c24f8e2e-8d5f-4653-9a7b-0072ed416603"
        },
        "districtUUID" : {
          "href" : "996b68b8-40d6-438e-94f6-2550882e613f"
        },
        "facilityType" : {
          "href" : "/38751/facilityType"
        },
        "district" : {
          "href" : "/38751/district"
        }
      }
    }, {
      "createdDate" : "2017-11-06T11:52:45.749+0000",
      "lastModifiedDate" : "2017-11-06T11:52:45.749+0000",
      "uuid" : "cb5ef8f6-239d-41a4-b8eb-32e6274d34e0",
      "inactive" : false,
      "name" : "Mandro",
      "_links" : {
        "self" : {
          "href" : "/38752"
        },
        "facilityTypeUUID" : {
          "href" : "ceff9b6e-c123-465b-a6da-2ed9d41c1921"
        },
        "districtUUID" : {
          "href" : "996b68b8-40d6-438e-94f6-2550882e613f"
        },
        "facilityType" : {
          "href" : "/38752/facilityType"
        },
        "district" : {
          "href" : "/38752/district"
        }
      }
    }, {
      "createdDate" : "2017-11-06T11:52:45.840+0000",
      "lastModifiedDate" : "2017-11-06T11:52:45.840+0000",
      "uuid" : "719a4833-31f9-49f3-9009-16fdaaa70af8",
      "inactive" : false,
      "name" : "Surya Nursing Pvt. Facility",
      "_links" : {
        "self" : {
          "href" : "/38753"
        },
        "facilityTypeUUID" : {
          "href" : "c24f8e2e-8d5f-4653-9a7b-0072ed416603"
        },
        "districtUUID" : {
          "href" : "996b68b8-40d6-438e-94f6-2550882e613f"
        },
        "facilityType" : {
          "href" : "/38753/facilityType"
        },
        "district" : {
          "href" : "/38753/district"
        }
      }
    }, {
      "createdDate" : "2017-11-06T11:52:45.935+0000",
      "lastModifiedDate" : "2017-11-06T11:52:45.935+0000",
      "uuid" : "5695c0d0-3f00-476b-8a1a-9c6db66ffae8",
      "inactive" : false,
      "name" : "Sahibganj Sadar",
      "_links" : {
        "self" : {
          "href" : "/38754"
        },
        "facilityTypeUUID" : {
          "href" : "c24f8e2e-8d5f-4653-9a7b-0072ed416603"
        },
        "districtUUID" : {
          "href" : "996b68b8-40d6-438e-94f6-2550882e613f"
        },
        "facilityType" : {
          "href" : "/38754/facilityType"
        },
        "district" : {
          "href" : "/38754/district"
        }
      }
    }, {
      "createdDate" : "2017-11-06T11:52:46.037+0000",
      "lastModifiedDate" : "2017-11-06T11:52:46.037+0000",
      "uuid" : "36261a46-3f9c-4017-998e-cd5c556ddc19",
      "inactive" : false,
      "name" : "Udhwa",
      "_links" : {
        "self" : {
          "href" : "/38755"
        },
        "facilityTypeUUID" : {
          "href" : "ceff9b6e-c123-465b-a6da-2ed9d41c1921"
        },
        "districtUUID" : {
          "href" : "996b68b8-40d6-438e-94f6-2550882e613f"
        },
        "facilityType" : {
          "href" : "/38755/facilityType"
        },
        "district" : {
          "href" : "/38755/district"
        }
      }
    }, {
      "createdDate" : "2017-11-06T11:52:46.126+0000",
      "lastModifiedDate" : "2017-11-06T11:52:46.126+0000",
      "uuid" : "38a06cb3-9db5-4f6b-8acf-5eefed54fe51",
      "inactive" : false,
      "name" : "Barhait",
      "_links" : {
        "self" : {
          "href" : "/38756"
        },
        "facilityTypeUUID" : {
          "href" : "c24f8e2e-8d5f-4653-9a7b-0072ed416603"
        },
        "districtUUID" : {
          "href" : "996b68b8-40d6-438e-94f6-2550882e613f"
        },
        "facilityType" : {
          "href" : "/38756/facilityType"
        },
        "district" : {
          "href" : "/38756/district"
        }
      }
    }, {
      "createdDate" : "2017-11-06T11:52:46.216+0000",
      "lastModifiedDate" : "2017-11-06T11:52:46.216+0000",
      "uuid" : "b979e039-7bc2-484e-a2d9-4dea65b27484",
      "inactive" : false,
      "name" : "Barharwa",
      "_links" : {
        "self" : {
          "href" : "/38757"
        },
        "facilityTypeUUID" : {
          "href" : "c24f8e2e-8d5f-4653-9a7b-0072ed416603"
        },
        "districtUUID" : {
          "href" : "996b68b8-40d6-438e-94f6-2550882e613f"
        },
        "facilityType" : {
          "href" : "/38757/facilityType"
        },
        "district" : {
          "href" : "/38757/district"
        }
      }
    }, {
      "createdDate" : "2017-11-06T11:52:46.304+0000",
      "lastModifiedDate" : "2017-11-06T11:52:46.304+0000",
      "uuid" : "0552d41b-4343-4c60-8246-bacd08ae6ca5",
      "inactive" : false,
      "name" : "Banjhi",
      "_links" : {
        "self" : {
          "href" : "/38758"
        },
        "facilityTypeUUID" : {
          "href" : "ceff9b6e-c123-465b-a6da-2ed9d41c1921"
        },
        "districtUUID" : {
          "href" : "996b68b8-40d6-438e-94f6-2550882e613f"
        },
        "facilityType" : {
          "href" : "/38758/facilityType"
        },
        "district" : {
          "href" : "/38758/district"
        }
      }
    }, {
      "createdDate" : "2017-11-06T11:52:46.401+0000",
      "lastModifiedDate" : "2017-11-06T11:52:46.401+0000",
      "uuid" : "d04a1e38-2395-4c5e-aa6b-b829763d0c6b",
      "inactive" : false,
      "name" : "Borbandh",
      "_links" : {
        "self" : {
          "href" : "/38759"
        },
        "facilityTypeUUID" : {
          "href" : "ceff9b6e-c123-465b-a6da-2ed9d41c1921"
        },
        "districtUUID" : {
          "href" : "996b68b8-40d6-438e-94f6-2550882e613f"
        },
        "facilityType" : {
          "href" : "/38759/facilityType"
        },
        "district" : {
          "href" : "/38759/district"
        }
      }
    }, {
      "createdDate" : "2017-11-06T11:52:46.497+0000",
      "lastModifiedDate" : "2017-11-06T11:52:46.497+0000",
      "uuid" : "13bc80a6-cd35-4855-8e8a-aa54d1a82fdc",
      "inactive" : false,
      "name" : "Gowalkohr",
      "_links" : {
        "self" : {
          "href" : "/38760"
        },
        "facilityTypeUUID" : {
          "href" : "ceff9b6e-c123-465b-a6da-2ed9d41c1921"
        },
        "districtUUID" : {
          "href" : "996b68b8-40d6-438e-94f6-2550882e613f"
        },
        "facilityType" : {
          "href" : "/38760/facilityType"
        },
        "district" : {
          "href" : "/38760/district"
        }
      }
    }, {
      "createdDate" : "2017-11-06T11:52:46.585+0000",
      "lastModifiedDate" : "2017-11-06T11:52:46.585+0000",
      "uuid" : "d0c3b5b5-15c4-4139-9b42-d8f023184951",
      "inactive" : false,
      "name" : "Teen Pahar",
      "_links" : {
        "self" : {
          "href" : "/38761"
        },
        "facilityTypeUUID" : {
          "href" : "ceff9b6e-c123-465b-a6da-2ed9d41c1921"
        },
        "districtUUID" : {
          "href" : "996b68b8-40d6-438e-94f6-2550882e613f"
        },
        "facilityType" : {
          "href" : "/38761/facilityType"
        },
        "district" : {
          "href" : "/38761/district"
        }
      }
    }, {
      "createdDate" : "2017-11-06T11:52:46.673+0000",
      "lastModifiedDate" : "2017-11-06T11:52:46.673+0000",
      "uuid" : "35a28e31-b90c-4eaa-8c0a-fb969d9f5e55",
      "inactive" : false,
      "name" : "Rajmahal",
      "_links" : {
        "self" : {
          "href" : "/38762"
        },
        "facilityTypeUUID" : {
          "href" : "6d8dd7dd-6210-4cbc-a205-628e77eb0aa5"
        },
        "districtUUID" : {
          "href" : "996b68b8-40d6-438e-94f6-2550882e613f"
        },
        "facilityType" : {
          "href" : "/38762/facilityType"
        },
        "district" : {
          "href" : "/38762/district"
        }
      }
    }, {
      "createdDate" : "2017-11-06T11:52:46.766+0000",
      "lastModifiedDate" : "2017-11-06T11:52:46.766+0000",
      "uuid" : "afef1cfe-98da-4079-852a-392fa75d9f6a",
      "inactive" : false,
      "name" : "Phulbanga",
      "_links" : {
        "self" : {
          "href" : "/38763"
        },
        "facilityTypeUUID" : {
          "href" : "ceff9b6e-c123-465b-a6da-2ed9d41c1921"
        },
        "districtUUID" : {
          "href" : "996b68b8-40d6-438e-94f6-2550882e613f"
        },
        "facilityType" : {
          "href" : "/38763/facilityType"
        },
        "district" : {
          "href" : "/38763/district"
        }
      }
    }, {
      "createdDate" : "2017-11-06T11:52:46.852+0000",
      "lastModifiedDate" : "2017-11-06T11:52:46.852+0000",
      "uuid" : "73cdc945-398f-40c8-a9c4-6d0ada31e0ad",
      "inactive" : false,
      "name" : "UPHC Chota Pachgarh",
      "_links" : {
        "self" : {
          "href" : "/38764"
        },
        "facilityTypeUUID" : {
          "href" : "0ad13f52-9a7f-4941-90c2-03a8c54c213e"
        },
        "districtUUID" : {
          "href" : "996b68b8-40d6-438e-94f6-2550882e613f"
        },
        "facilityType" : {
          "href" : "/38764/facilityType"
        },
        "district" : {
          "href" : "/38764/district"
        }
      }
    }, {
      "createdDate" : "2017-11-06T11:52:46.941+0000",
      "lastModifiedDate" : "2017-11-06T11:52:46.941+0000",
      "uuid" : "7ebd7845-37cf-4470-b9f2-467d35ed1a2b",
      "inactive" : false,
      "name" : "Pathna",
      "_links" : {
        "self" : {
          "href" : "/38765"
        },
        "facilityTypeUUID" : {
          "href" : "c24f8e2e-8d5f-4653-9a7b-0072ed416603"
        },
        "districtUUID" : {
          "href" : "996b68b8-40d6-438e-94f6-2550882e613f"
        },
        "facilityType" : {
          "href" : "/38765/facilityType"
        },
        "district" : {
          "href" : "/38765/district"
        }
      }
    }, {
      "createdDate" : "2017-11-06T11:52:47.055+0000",
      "lastModifiedDate" : "2017-11-06T11:52:47.055+0000",
      "uuid" : "a2d0dfda-ad11-4711-a654-c701c0ceecb1",
      "inactive" : false,
      "name" : "Fudikipur",
      "_links" : {
        "self" : {
          "href" : "/38766"
        },
        "facilityTypeUUID" : {
          "href" : "ceff9b6e-c123-465b-a6da-2ed9d41c1921"
        },
        "districtUUID" : {
          "href" : "996b68b8-40d6-438e-94f6-2550882e613f"
        },
        "facilityType" : {
          "href" : "/38766/facilityType"
        },
        "district" : {
          "href" : "/38766/district"
        }
      }
    }, {
      "createdDate" : "2017-11-06T11:52:47.178+0000",
      "lastModifiedDate" : "2017-11-06T11:52:47.178+0000",
      "uuid" : "2ac80563-5b27-422e-b3a5-0d70799fedbe",
      "inactive" : false,
      "name" : "Taljhari",
      "_links" : {
        "self" : {
          "href" : "/38767"
        },
        "facilityTypeUUID" : {
          "href" : "c24f8e2e-8d5f-4653-9a7b-0072ed416603"
        },
        "districtUUID" : {
          "href" : "996b68b8-40d6-438e-94f6-2550882e613f"
        },
        "facilityType" : {
          "href" : "/38767/facilityType"
        },
        "district" : {
          "href" : "/38767/district"
        }
      }
    }, {
      "createdDate" : "2017-11-06T11:52:47.266+0000",
      "lastModifiedDate" : "2017-11-06T11:52:47.266+0000",
      "uuid" : "f8f5b8b7-43dd-4567-92f6-5e551772b0b1",
      "inactive" : false,
      "name" : "Meso Prem Joty",
      "_links" : {
        "self" : {
          "href" : "/38768"
        },
        "facilityTypeUUID" : {
          "href" : "c24f8e2e-8d5f-4653-9a7b-0072ed416603"
        },
        "districtUUID" : {
          "href" : "996b68b8-40d6-438e-94f6-2550882e613f"
        },
        "facilityType" : {
          "href" : "/38768/facilityType"
        },
        "district" : {
          "href" : "/38768/district"
        }
      }
    }, {
      "createdDate" : "2017-11-06T11:52:47.353+0000",
      "lastModifiedDate" : "2017-11-06T11:52:47.353+0000",
      "uuid" : "e6add51d-30aa-4b42-8037-f9836e002af2",
      "inactive" : false,
      "name" : "Senha",
      "_links" : {
        "self" : {
          "href" : "/38769"
        },
        "facilityTypeUUID" : {
          "href" : "c24f8e2e-8d5f-4653-9a7b-0072ed416603"
        },
        "districtUUID" : {
          "href" : "4a4dc6f2-8fa9-4a93-a96d-5ff21a614423"
        },
        "facilityType" : {
          "href" : "/38769/facilityType"
        },
        "district" : {
          "href" : "/38769/district"
        }
      }
    }, {
      "createdDate" : "2017-11-06T11:52:47.444+0000",
      "lastModifiedDate" : "2017-11-06T11:52:47.444+0000",
      "uuid" : "e61fb61c-aef7-4d38-876f-3eac72028772",
      "inactive" : false,
      "name" : "Kisko",
      "_links" : {
        "self" : {
          "href" : "/38770"
        },
        "facilityTypeUUID" : {
          "href" : "c24f8e2e-8d5f-4653-9a7b-0072ed416603"
        },
        "districtUUID" : {
          "href" : "4a4dc6f2-8fa9-4a93-a96d-5ff21a614423"
        },
        "facilityType" : {
          "href" : "/38770/facilityType"
        },
        "district" : {
          "href" : "/38770/district"
        }
      }
    }, {
      "createdDate" : "2017-11-06T11:52:47.568+0000",
      "lastModifiedDate" : "2017-11-06T11:52:47.568+0000",
      "uuid" : "600217ed-087f-467a-bfdc-bfc21d659a55",
      "inactive" : false,
      "name" : "Nagjua",
      "_links" : {
        "self" : {
          "href" : "/38771"
        },
        "facilityTypeUUID" : {
          "href" : "ceff9b6e-c123-465b-a6da-2ed9d41c1921"
        },
        "districtUUID" : {
          "href" : "4a4dc6f2-8fa9-4a93-a96d-5ff21a614423"
        },
        "facilityType" : {
          "href" : "/38771/facilityType"
        },
        "district" : {
          "href" : "/38771/district"
        }
      }
    }, {
      "createdDate" : "2017-11-06T11:52:47.673+0000",
      "lastModifiedDate" : "2017-11-06T11:52:47.673+0000",
      "uuid" : "7eb568d0-4307-4d56-9e7c-2a7155a6681f",
      "inactive" : false,
      "name" : "Bhandra",
      "_links" : {
        "self" : {
          "href" : "/38772"
        },
        "facilityTypeUUID" : {
          "href" : "c24f8e2e-8d5f-4653-9a7b-0072ed416603"
        },
        "districtUUID" : {
          "href" : "4a4dc6f2-8fa9-4a93-a96d-5ff21a614423"
        },
        "facilityType" : {
          "href" : "/38772/facilityType"
        },
        "district" : {
          "href" : "/38772/district"
        }
      }
    }, {
      "createdDate" : "2017-11-06T11:52:47.855+0000",
      "lastModifiedDate" : "2017-11-06T11:52:47.855+0000",
      "uuid" : "07a8d557-15df-4181-b361-d06118b2af91",
      "inactive" : false,
      "name" : "St. Ursala Hospital",
      "_links" : {
        "self" : {
          "href" : "/38773"
        },
        "facilityTypeUUID" : {
          "href" : "c24f8e2e-8d5f-4653-9a7b-0072ed416603"
        },
        "districtUUID" : {
          "href" : "4a4dc6f2-8fa9-4a93-a96d-5ff21a614423"
        },
        "facilityType" : {
          "href" : "/38773/facilityType"
        },
        "district" : {
          "href" : "/38773/district"
        }
      }
    }, {
      "createdDate" : "2017-11-06T11:52:47.947+0000",
      "lastModifiedDate" : "2017-11-06T11:52:47.947+0000",
      "uuid" : "2514d48f-f29a-4fab-8b60-7a85a07e6725",
      "inactive" : false,
      "name" : "Irgaon",
      "_links" : {
        "self" : {
          "href" : "/38774"
        },
        "facilityTypeUUID" : {
          "href" : "ceff9b6e-c123-465b-a6da-2ed9d41c1921"
        },
        "districtUUID" : {
          "href" : "4a4dc6f2-8fa9-4a93-a96d-5ff21a614423"
        },
        "facilityType" : {
          "href" : "/38774/facilityType"
        },
        "district" : {
          "href" : "/38774/district"
        }
      }
    }, {
      "createdDate" : "2017-11-06T11:52:48.036+0000",
      "lastModifiedDate" : "2017-11-06T11:52:48.036+0000",
      "uuid" : "7cf5108c-a2b7-44ef-aef1-0eacdac1062c",
      "inactive" : false,
      "name" : "Kuru",
      "_links" : {
        "self" : {
          "href" : "/38775"
        },
        "facilityTypeUUID" : {
          "href" : "c24f8e2e-8d5f-4653-9a7b-0072ed416603"
        },
        "districtUUID" : {
          "href" : "4a4dc6f2-8fa9-4a93-a96d-5ff21a614423"
        },
        "facilityType" : {
          "href" : "/38775/facilityType"
        },
        "district" : {
          "href" : "/38775/district"
        }
      }
    }, {
      "createdDate" : "2017-11-06T11:52:48.122+0000",
      "lastModifiedDate" : "2017-11-06T11:52:48.122+0000",
      "uuid" : "b304ca53-0c89-4a3a-ab3c-9bb06bf4f0c3",
      "inactive" : false,
      "name" : "Lohardaga Sadar Hospital",
      "_links" : {
        "self" : {
          "href" : "/38776"
        },
        "facilityTypeUUID" : {
          "href" : "f28c99d3-ba72-4a36-925a-cfa0c3bb6a63"
        },
        "districtUUID" : {
          "href" : "4a4dc6f2-8fa9-4a93-a96d-5ff21a614423"
        },
        "facilityType" : {
          "href" : "/38776/facilityType"
        },
        "district" : {
          "href" : "/38776/district"
        }
      }
    }, {
      "createdDate" : "2017-11-06T11:52:48.225+0000",
      "lastModifiedDate" : "2017-11-06T11:52:48.225+0000",
      "uuid" : "bfdee10d-9277-4340-afe5-5fb6af19074c",
      "inactive" : false,
      "name" : "Kairo",
      "_links" : {
        "self" : {
          "href" : "/38777"
        },
        "facilityTypeUUID" : {
          "href" : "ceff9b6e-c123-465b-a6da-2ed9d41c1921"
        },
        "districtUUID" : {
          "href" : "4a4dc6f2-8fa9-4a93-a96d-5ff21a614423"
        },
        "facilityType" : {
          "href" : "/38777/facilityType"
        },
        "district" : {
          "href" : "/38777/district"
        }
      }
    }, {
      "createdDate" : "2017-11-06T11:52:48.336+0000",
      "lastModifiedDate" : "2017-11-06T11:52:48.336+0000",
      "uuid" : "9002b130-2dc5-4cfc-b17c-4339695e36ce",
      "inactive" : false,
      "name" : "Marandi Clinic",
      "_links" : {
        "self" : {
          "href" : "/38778"
        },
        "facilityTypeUUID" : {
          "href" : "c24f8e2e-8d5f-4653-9a7b-0072ed416603"
        },
        "districtUUID" : {
          "href" : "4a4dc6f2-8fa9-4a93-a96d-5ff21a614423"
        },
        "facilityType" : {
          "href" : "/38778/facilityType"
        },
        "district" : {
          "href" : "/38778/district"
        }
      }
    }, {
      "createdDate" : "2017-11-06T11:52:48.429+0000",
      "lastModifiedDate" : "2017-11-06T11:52:48.429+0000",
      "uuid" : "1a0dd70d-4fda-4a3a-bcc6-fc4ae6bbf8cf",
      "inactive" : false,
      "name" : "Sadar Notional",
      "_links" : {
        "self" : {
          "href" : "/38779"
        },
        "facilityTypeUUID" : {
          "href" : "ceff9b6e-c123-465b-a6da-2ed9d41c1921"
        },
        "districtUUID" : {
          "href" : "4a4dc6f2-8fa9-4a93-a96d-5ff21a614423"
        },
        "facilityType" : {
          "href" : "/38779/facilityType"
        },
        "district" : {
          "href" : "/38779/district"
        }
      }
    }, {
      "createdDate" : "2017-11-06T11:52:48.528+0000",
      "lastModifiedDate" : "2017-11-06T11:52:48.528+0000",
      "uuid" : "3eef6aae-09a2-4b20-9a76-7bd6a1cd8934",
      "inactive" : false,
      "name" : "Surya Clinic",
      "_links" : {
        "self" : {
          "href" : "/38780"
        },
        "facilityTypeUUID" : {
          "href" : "0ad13f52-9a7f-4941-90c2-03a8c54c213e"
        },
        "districtUUID" : {
          "href" : "4a4dc6f2-8fa9-4a93-a96d-5ff21a614423"
        },
        "facilityType" : {
          "href" : "/38780/facilityType"
        },
        "district" : {
          "href" : "/38780/district"
        }
      }
    }, {
      "createdDate" : "2017-11-06T11:52:48.623+0000",
      "lastModifiedDate" : "2017-11-06T11:52:48.623+0000",
      "uuid" : "2ac42c0d-c04f-4121-b987-69a2b084b74a",
      "inactive" : false,
      "name" : "Prasad Clinic",
      "_links" : {
        "self" : {
          "href" : "/38781"
        },
        "facilityTypeUUID" : {
          "href" : "c24f8e2e-8d5f-4653-9a7b-0072ed416603"
        },
        "districtUUID" : {
          "href" : "4a4dc6f2-8fa9-4a93-a96d-5ff21a614423"
        },
        "facilityType" : {
          "href" : "/38781/facilityType"
        },
        "district" : {
          "href" : "/38781/district"
        }
      }
    } ]
  },
  "_links" : {
    "first" : {
      "href" : "/search/lastModifiedByState?lastModifiedDate=1900-01-01T00:00:00.001Z&name=Jharkhand&page=0&size=200"
    },
    "prev" : {
      "href" : "/search/lastModifiedByState?lastModifiedDate=1900-01-01T00:00:00.001Z&name=Jharkhand&page=2&size=200"
    },
    "self" : {
      "href" : "/search/lastModifiedByState?lastModifiedDate=1900-01-01T00:00:00.001Z&size=200&page=3&name=Jharkhand"
    },
    "last" : {
      "href" : "/search/lastModifiedByState?lastModifiedDate=1900-01-01T00:00:00.001Z&name=Jharkhand&page=3&size=200"
    }
  },
  "page" : {
    "size" : 200,
    "totalElements" : 640,
    "totalPages" : 4,
    "number" : 3
  }
}