{
  "_embedded" : {
    "facility" : [ {
      "createdDate" : "2017-11-06T10:46:47.020+0000",
      "lastModifiedDate" : "2017-11-06T10:46:47.020+0000",
      "uuid" : "bd1dac7d-be66-4b4d-b5f4-f8c2eb357885",
      "inactive" : false,
      "name" : "Duttalur",
      "_links" : {
        "self" : {
          "href" : "/9688"
        },
        "facilityTypeUUID" : {
          "href" : "ceff9b6e-c123-465b-a6da-2ed9d41c1921"
        },
        "districtUUID" : {
          "href" : "f5cd03e0-2657-4447-a4cd-76ecd50b7bb9"
        },
        "district" : {
          "href" : "/9688/district"
        },
        "facilityType" : {
          "href" : "/9688/facilityType"
        }
      }
    }, {
      "createdDate" : "2017-11-06T10:46:47.107+0000",
      "lastModifiedDate" : "2017-11-06T10:46:47.107+0000",
      "uuid" : "e097ed85-d383-4dec-b91f-dc4765715500",
      "inactive" : false,
      "name" : "Mallam",
      "_links" : {
        "self" : {
          "href" : "/9689"
        },
        "facilityTypeUUID" : {
          "href" : "ceff9b6e-c123-465b-a6da-2ed9d41c1921"
        },
        "districtUUID" : {
          "href" : "f5cd03e0-2657-4447-a4cd-76ecd50b7bb9"
        },
        "district" : {
          "href" : "/9689/district"
        },
        "facilityType" : {
          "href" : "/9689/facilityType"
        }
      }
    }, {
      "createdDate" : "2017-11-06T10:46:47.196+0000",
      "lastModifiedDate" : "2017-11-06T10:46:47.196+0000",
      "uuid" : "7c507188-bf73-4e2d-8563-0797a5b780cc",
      "inactive" : false,
      "name" : "Vykuntapuram UPHC",
      "_links" : {
        "self" : {
          "href" : "/9690"
        },
        "facilityTypeUUID" : {
          "href" : "0ad13f52-9a7f-4941-90c2-03a8c54c213e"
        },
        "districtUUID" : {
          "href" : "f5cd03e0-2657-4447-a4cd-76ecd50b7bb9"
        },
        "district" : {
          "href" : "/9690/district"
        },
        "facilityType" : {
          "href" : "/9690/facilityType"
        }
      }
    }, {
      "createdDate" : "2017-11-06T10:46:47.285+0000",
      "lastModifiedDate" : "2017-11-06T10:46:47.285+0000",
      "uuid" : "165a1d3e-5472-43f1-8fea-cda066a013a7",
      "inactive" : false,
      "name" : "Balireddypalem",
      "_links" : {
        "self" : {
          "href" : "/9691"
        },
        "facilityTypeUUID" : {
          "href" : "ceff9b6e-c123-465b-a6da-2ed9d41c1921"
        },
        "districtUUID" : {
          "href" : "f5cd03e0-2657-4447-a4cd-76ecd50b7bb9"
        },
        "district" : {
          "href" : "/9691/district"
        },
        "facilityType" : {
          "href" : "/9691/facilityType"
        }
      }
    }, {
      "createdDate" : "2017-11-06T10:46:47.370+0000",
      "lastModifiedDate" : "2017-11-06T10:46:47.370+0000",
      "uuid" : "e5d2548f-1baf-4ee4-bf7e-2a6b4b642bbe",
      "inactive" : false,
      "name" : "Vengalraonagar UPHC",
      "_links" : {
        "self" : {
          "href" : "/9692"
        },
        "facilityTypeUUID" : {
          "href" : "0ad13f52-9a7f-4941-90c2-03a8c54c213e"
        },
        "districtUUID" : {
          "href" : "f5cd03e0-2657-4447-a4cd-76ecd50b7bb9"
        },
        "district" : {
          "href" : "/9692/district"
        },
        "facilityType" : {
          "href" : "/9692/facilityType"
        }
      }
    }, {
      "createdDate" : "2017-11-06T10:46:47.460+0000",
      "lastModifiedDate" : "2017-11-06T10:46:47.460+0000",
      "uuid" : "a12702a1-2091-4660-ad76-a27fcd484941",
      "inactive" : false,
      "name" : "Buchi",
      "_links" : {
        "self" : {
          "href" : "/9693"
        },
        "facilityTypeUUID" : {
          "href" : "c24f8e2e-8d5f-4653-9a7b-0072ed416603"
        },
        "districtUUID" : {
          "href" : "f5cd03e0-2657-4447-a4cd-76ecd50b7bb9"
        },
        "district" : {
          "href" : "/9693/district"
        },
        "facilityType" : {
          "href" : "/9693/facilityType"
        }
      }
    }, {
      "createdDate" : "2017-11-06T10:46:47.553+0000",
      "lastModifiedDate" : "2017-11-06T10:46:47.553+0000",
      "uuid" : "34eb33c9-5bda-44d9-ae25-f6d1a5c250ce",
      "inactive" : false,
      "name" : "ICDS Nellore",
      "_links" : {
        "self" : {
          "href" : "/9694"
        },
        "facilityTypeUUID" : {
          "href" : "0ad13f52-9a7f-4941-90c2-03a8c54c213e"
        },
        "districtUUID" : {
          "href" : "f5cd03e0-2657-4447-a4cd-76ecd50b7bb9"
        },
        "district" : {
          "href" : "/9694/district"
        },
        "facilityType" : {
          "href" : "/9694/facilityType"
        }
      }
    }, {
      "createdDate" : "2017-11-06T10:46:47.640+0000",
      "lastModifiedDate" : "2017-11-06T10:46:47.640+0000",
      "uuid" : "f81b174e-2345-4777-ba57-e5bda2dd9bdf",
      "inactive" : false,
      "name" : "Chennur",
      "_links" : {
        "self" : {
          "href" : "/9695"
        },
        "facilityTypeUUID" : {
          "href" : "ceff9b6e-c123-465b-a6da-2ed9d41c1921"
        },
        "districtUUID" : {
          "href" : "f5cd03e0-2657-4447-a4cd-76ecd50b7bb9"
        },
        "district" : {
          "href" : "/9695/district"
        },
        "facilityType" : {
          "href" : "/9695/facilityType"
        }
      }
    }, {
      "createdDate" : "2017-11-06T10:46:47.732+0000",
      "lastModifiedDate" : "2017-11-06T10:46:47.732+0000",
      "uuid" : "6a42e12b-7b01-472e-a0b6-ca0747c11f59",
      "inactive" : false,
      "name" : "Indukurpeta",
      "_links" : {
        "self" : {
          "href" : "/9696"
        },
        "facilityTypeUUID" : {
          "href" : "c24f8e2e-8d5f-4653-9a7b-0072ed416603"
        },
        "districtUUID" : {
          "href" : "f5cd03e0-2657-4447-a4cd-76ecd50b7bb9"
        },
        "district" : {
          "href" : "/9696/district"
        },
        "facilityType" : {
          "href" : "/9696/facilityType"
        }
      }
    }, {
      "createdDate" : "2017-11-06T10:46:47.825+0000",
      "lastModifiedDate" : "2017-11-06T10:46:47.825+0000",
      "uuid" : "39ca8137-e99e-42e8-8209-a46743ab89af",
      "inactive" : false,
      "name" : "Chintavaram",
      "_links" : {
        "self" : {
          "href" : "/9697"
        },
        "facilityTypeUUID" : {
          "href" : "ceff9b6e-c123-465b-a6da-2ed9d41c1921"
        },
        "districtUUID" : {
          "href" : "f5cd03e0-2657-4447-a4cd-76ecd50b7bb9"
        },
        "district" : {
          "href" : "/9697/district"
        },
        "facilityType" : {
          "href" : "/9697/facilityType"
        }
      }
    }, {
      "createdDate" : "2017-11-06T10:46:47.910+0000",
      "lastModifiedDate" : "2017-11-06T10:46:47.910+0000",
      "uuid" : "b6246791-4ee7-4038-93a3-32f61321d6c3",
      "inactive" : false,
      "name" : "Jonnawada",
      "_links" : {
        "self" : {
          "href" : "/9698"
        },
        "facilityTypeUUID" : {
          "href" : "ceff9b6e-c123-465b-a6da-2ed9d41c1921"
        },
        "districtUUID" : {
          "href" : "f5cd03e0-2657-4447-a4cd-76ecd50b7bb9"
        },
        "district" : {
          "href" : "/9698/district"
        },
        "facilityType" : {
          "href" : "/9698/facilityType"
        }
      }
    }, {
      "createdDate" : "2017-11-06T10:46:48.003+0000",
      "lastModifiedDate" : "2017-11-06T10:46:48.003+0000",
      "uuid" : "66668250-0dc4-4a13-9a2e-700d842c943f",
      "inactive" : false,
      "name" : "Iskapalli",
      "_links" : {
        "self" : {
          "href" : "/9699"
        },
        "facilityTypeUUID" : {
          "href" : "ceff9b6e-c123-465b-a6da-2ed9d41c1921"
        },
        "districtUUID" : {
          "href" : "f5cd03e0-2657-4447-a4cd-76ecd50b7bb9"
        },
        "district" : {
          "href" : "/9699/district"
        },
        "facilityType" : {
          "href" : "/9699/facilityType"
        }
      }
    }, {
      "createdDate" : "2017-11-06T10:46:48.089+0000",
      "lastModifiedDate" : "2017-11-06T10:46:48.089+0000",
      "uuid" : "c0483ab3-765b-4f82-bf62-e58a95eaa66f",
      "inactive" : false,
      "name" : "Kaluvoya",
      "_links" : {
        "self" : {
          "href" : "/9700"
        },
        "facilityTypeUUID" : {
          "href" : "ceff9b6e-c123-465b-a6da-2ed9d41c1921"
        },
        "districtUUID" : {
          "href" : "f5cd03e0-2657-4447-a4cd-76ecd50b7bb9"
        },
        "district" : {
          "href" : "/9700/district"
        },
        "facilityType" : {
          "href" : "/9700/facilityType"
        }
      }
    }, {
      "createdDate" : "2017-11-06T10:46:48.180+0000",
      "lastModifiedDate" : "2017-11-06T10:46:48.180+0000",
      "uuid" : "69864189-2b8d-491f-8764-396b64839c45",
      "inactive" : false,
      "name" : "Kodavalur",
      "_links" : {
        "self" : {
          "href" : "/9701"
        },
        "facilityTypeUUID" : {
          "href" : "ceff9b6e-c123-465b-a6da-2ed9d41c1921"
        },
        "districtUUID" : {
          "href" : "f5cd03e0-2657-4447-a4cd-76ecd50b7bb9"
        },
        "district" : {
          "href" : "/9701/district"
        },
        "facilityType" : {
          "href" : "/9701/facilityType"
        }
      }
    }, {
      "createdDate" : "2017-11-06T10:46:48.275+0000",
      "lastModifiedDate" : "2017-11-06T10:46:48.275+0000",
      "uuid" : "122536a6-9ba4-432f-931a-644e1d9e789a",
      "inactive" : false,
      "name" : "Private above 30 bed",
      "_links" : {
        "self" : {
          "href" : "/9702"
        },
        "facilityTypeUUID" : {
          "href" : "6d8dd7dd-6210-4cbc-a205-628e77eb0aa5"
        },
        "districtUUID" : {
          "href" : "f5cd03e0-2657-4447-a4cd-76ecd50b7bb9"
        },
        "district" : {
          "href" : "/9702/district"
        },
        "facilityType" : {
          "href" : "/9702/facilityType"
        }
      }
    }, {
      "createdDate" : "2017-11-06T10:46:48.369+0000",
      "lastModifiedDate" : "2017-11-06T10:46:48.369+0000",
      "uuid" : "60c0abfa-1bfe-4b2b-bab4-fc00e9a25361",
      "inactive" : false,
      "name" : "Vinjamur",
      "_links" : {
        "self" : {
          "href" : "/9703"
        },
        "facilityTypeUUID" : {
          "href" : "c24f8e2e-8d5f-4653-9a7b-0072ed416603"
        },
        "districtUUID" : {
          "href" : "f5cd03e0-2657-4447-a4cd-76ecd50b7bb9"
        },
        "district" : {
          "href" : "/9703/district"
        },
        "facilityType" : {
          "href" : "/9703/facilityType"
        }
      }
    }, {
      "createdDate" : "2017-11-06T10:46:48.455+0000",
      "lastModifiedDate" : "2017-11-06T10:46:48.455+0000",
      "uuid" : "59c0ca29-aebe-4764-b317-f668a17eeabe",
      "inactive" : false,
      "name" : "Tummalapenta",
      "_links" : {
        "self" : {
          "href" : "/9704"
        },
        "facilityTypeUUID" : {
          "href" : "ceff9b6e-c123-465b-a6da-2ed9d41c1921"
        },
        "districtUUID" : {
          "href" : "f5cd03e0-2657-4447-a4cd-76ecd50b7bb9"
        },
        "district" : {
          "href" : "/9704/district"
        },
        "facilityType" : {
          "href" : "/9704/facilityType"
        }
      }
    }, {
      "createdDate" : "2017-11-06T10:46:48.541+0000",
      "lastModifiedDate" : "2017-11-06T10:46:48.541+0000",
      "uuid" : "85d73a00-f4f4-47ca-a3aa-13ebd0e3d518",
      "inactive" : false,
      "name" : "PPU Nellore",
      "_links" : {
        "self" : {
          "href" : "/9705"
        },
        "facilityTypeUUID" : {
          "href" : "0ad13f52-9a7f-4941-90c2-03a8c54c213e"
        },
        "districtUUID" : {
          "href" : "f5cd03e0-2657-4447-a4cd-76ecd50b7bb9"
        },
        "district" : {
          "href" : "/9705/district"
        },
        "facilityType" : {
          "href" : "/9705/facilityType"
        }
      }
    }, {
      "createdDate" : "2017-11-06T10:46:48.631+0000",
      "lastModifiedDate" : "2017-11-06T10:46:48.631+0000",
      "uuid" : "cad6b6b8-ca1c-4aec-8923-789f8ec10c7b",
      "inactive" : false,
      "name" : "Vidavalur",
      "_links" : {
        "self" : {
          "href" : "/9706"
        },
        "facilityTypeUUID" : {
          "href" : "ceff9b6e-c123-465b-a6da-2ed9d41c1921"
        },
        "districtUUID" : {
          "href" : "f5cd03e0-2657-4447-a4cd-76ecd50b7bb9"
        },
        "district" : {
          "href" : "/9706/district"
        },
        "facilityType" : {
          "href" : "/9706/facilityType"
        }
      }
    }, {
      "createdDate" : "2017-11-06T10:46:48.720+0000",
      "lastModifiedDate" : "2017-11-06T10:46:48.720+0000",
      "uuid" : "a95135f7-368b-4276-89cb-ad2864fb573c",
      "inactive" : false,
      "name" : "Uco Nagar UPHC",
      "_links" : {
        "self" : {
          "href" : "/9707"
        },
        "facilityTypeUUID" : {
          "href" : "0ad13f52-9a7f-4941-90c2-03a8c54c213e"
        },
        "districtUUID" : {
          "href" : "f5cd03e0-2657-4447-a4cd-76ecd50b7bb9"
        },
        "district" : {
          "href" : "/9707/district"
        },
        "facilityType" : {
          "href" : "/9707/facilityType"
        }
      }
    }, {
      "createdDate" : "2017-11-06T10:46:48.807+0000",
      "lastModifiedDate" : "2017-11-06T10:46:48.807+0000",
      "uuid" : "085442a3-baf8-4312-9358-7e3e3b193d16",
      "inactive" : false,
      "name" : "Pellakur",
      "_links" : {
        "self" : {
          "href" : "/9708"
        },
        "facilityTypeUUID" : {
          "href" : "ceff9b6e-c123-465b-a6da-2ed9d41c1921"
        },
        "districtUUID" : {
          "href" : "f5cd03e0-2657-4447-a4cd-76ecd50b7bb9"
        },
        "district" : {
          "href" : "/9708/district"
        },
        "facilityType" : {
          "href" : "/9708/facilityType"
        }
      }
    }, {
      "createdDate" : "2017-11-06T10:46:48.896+0000",
      "lastModifiedDate" : "2017-11-06T10:46:48.896+0000",
      "uuid" : "d1eef7b7-2148-461e-a3d5-9be6bac79d8e",
      "inactive" : false,
      "name" : "Thummuru",
      "_links" : {
        "self" : {
          "href" : "/9709"
        },
        "facilityTypeUUID" : {
          "href" : "ceff9b6e-c123-465b-a6da-2ed9d41c1921"
        },
        "districtUUID" : {
          "href" : "f5cd03e0-2657-4447-a4cd-76ecd50b7bb9"
        },
        "district" : {
          "href" : "/9709/district"
        },
        "facilityType" : {
          "href" : "/9709/facilityType"
        }
      }
    }, {
      "createdDate" : "2017-11-06T10:46:48.998+0000",
      "lastModifiedDate" : "2017-11-06T10:46:48.998+0000",
      "uuid" : "c209733a-f82a-48cb-b5e3-31cc7a229a23",
      "inactive" : false,
      "name" : "Atmakur UFWC",
      "_links" : {
        "self" : {
          "href" : "/9710"
        },
        "facilityTypeUUID" : {
          "href" : "0ad13f52-9a7f-4941-90c2-03a8c54c213e"
        },
        "districtUUID" : {
          "href" : "f5cd03e0-2657-4447-a4cd-76ecd50b7bb9"
        },
        "district" : {
          "href" : "/9710/district"
        },
        "facilityType" : {
          "href" : "/9710/facilityType"
        }
      }
    }, {
      "createdDate" : "2017-11-06T10:46:49.089+0000",
      "lastModifiedDate" : "2017-11-06T10:46:49.089+0000",
      "uuid" : "859b136a-1dbc-4400-be6e-bc85690e08dd",
      "inactive" : false,
      "name" : "Gudur UFWC",
      "_links" : {
        "self" : {
          "href" : "/9711"
        },
        "facilityTypeUUID" : {
          "href" : "0ad13f52-9a7f-4941-90c2-03a8c54c213e"
        },
        "districtUUID" : {
          "href" : "f5cd03e0-2657-4447-a4cd-76ecd50b7bb9"
        },
        "district" : {
          "href" : "/9711/district"
        },
        "facilityType" : {
          "href" : "/9711/facilityType"
        }
      }
    }, {
      "createdDate" : "2017-11-06T10:46:49.176+0000",
      "lastModifiedDate" : "2017-11-06T10:46:49.176+0000",
      "uuid" : "95f0b3db-6ad7-43e1-b250-1d3f6ca5d3b6",
      "inactive" : false,
      "name" : "Vakadu",
      "_links" : {
        "self" : {
          "href" : "/9712"
        },
        "facilityTypeUUID" : {
          "href" : "c24f8e2e-8d5f-4653-9a7b-0072ed416603"
        },
        "districtUUID" : {
          "href" : "f5cd03e0-2657-4447-a4cd-76ecd50b7bb9"
        },
        "district" : {
          "href" : "/9712/district"
        },
        "facilityType" : {
          "href" : "/9712/facilityType"
        }
      }
    }, {
      "createdDate" : "2017-11-06T10:46:49.268+0000",
      "lastModifiedDate" : "2017-11-06T10:46:49.268+0000",
      "uuid" : "76f9a220-d946-4a4a-b801-d09d2c0ef040",
      "inactive" : false,
      "name" : "Chillakur",
      "_links" : {
        "self" : {
          "href" : "/9713"
        },
        "facilityTypeUUID" : {
          "href" : "ceff9b6e-c123-465b-a6da-2ed9d41c1921"
        },
        "districtUUID" : {
          "href" : "f5cd03e0-2657-4447-a4cd-76ecd50b7bb9"
        },
        "district" : {
          "href" : "/9713/district"
        },
        "facilityType" : {
          "href" : "/9713/facilityType"
        }
      }
    }, {
      "createdDate" : "2017-11-06T10:46:49.358+0000",
      "lastModifiedDate" : "2017-11-06T10:46:49.358+0000",
      "uuid" : "66be8412-ca19-4c35-a3cc-9967f8653645",
      "inactive" : false,
      "name" : "Kullur",
      "_links" : {
        "self" : {
          "href" : "/9714"
        },
        "facilityTypeUUID" : {
          "href" : "ceff9b6e-c123-465b-a6da-2ed9d41c1921"
        },
        "districtUUID" : {
          "href" : "f5cd03e0-2657-4447-a4cd-76ecd50b7bb9"
        },
        "district" : {
          "href" : "/9714/district"
        },
        "facilityType" : {
          "href" : "/9714/facilityType"
        }
      }
    }, {
      "createdDate" : "2017-11-06T10:46:49.449+0000",
      "lastModifiedDate" : "2017-11-06T10:46:49.449+0000",
      "uuid" : "ed1edf4c-7fab-43d7-89c8-f447a6565418",
      "inactive" : false,
      "name" : "Varigonda",
      "_links" : {
        "self" : {
          "href" : "/9715"
        },
        "facilityTypeUUID" : {
          "href" : "ceff9b6e-c123-465b-a6da-2ed9d41c1921"
        },
        "districtUUID" : {
          "href" : "f5cd03e0-2657-4447-a4cd-76ecd50b7bb9"
        },
        "district" : {
          "href" : "/9715/district"
        },
        "facilityType" : {
          "href" : "/9715/facilityType"
        }
      }
    }, {
      "createdDate" : "2017-11-06T10:46:49.541+0000",
      "lastModifiedDate" : "2017-11-06T10:46:49.541+0000",
      "uuid" : "d73ec28f-fffa-4b5c-aa60-7aa53d274de8",
      "inactive" : false,
      "name" : "Varikuntapadu",
      "_links" : {
        "self" : {
          "href" : "/9716"
        },
        "facilityTypeUUID" : {
          "href" : "ceff9b6e-c123-465b-a6da-2ed9d41c1921"
        },
        "districtUUID" : {
          "href" : "f5cd03e0-2657-4447-a4cd-76ecd50b7bb9"
        },
        "district" : {
          "href" : "/9716/district"
        },
        "facilityType" : {
          "href" : "/9716/facilityType"
        }
      }
    }, {
      "createdDate" : "2017-11-06T10:46:49.631+0000",
      "lastModifiedDate" : "2017-11-06T10:46:49.631+0000",
      "uuid" : "778223a0-91a3-4b45-8788-916e166cc453",
      "inactive" : false,
      "name" : "Sulurpet  UFWC",
      "_links" : {
        "self" : {
          "href" : "/9717"
        },
        "facilityTypeUUID" : {
          "href" : "0ad13f52-9a7f-4941-90c2-03a8c54c213e"
        },
        "districtUUID" : {
          "href" : "f5cd03e0-2657-4447-a4cd-76ecd50b7bb9"
        },
        "district" : {
          "href" : "/9717/district"
        },
        "facilityType" : {
          "href" : "/9717/facilityType"
        }
      }
    }, {
      "createdDate" : "2017-11-06T10:46:49.718+0000",
      "lastModifiedDate" : "2017-11-06T10:46:49.718+0000",
      "uuid" : "bf0f26b2-8c06-4d16-8321-5954f8187b2e",
      "inactive" : false,
      "name" : "Chakalikonda",
      "_links" : {
        "self" : {
          "href" : "/9718"
        },
        "facilityTypeUUID" : {
          "href" : "ceff9b6e-c123-465b-a6da-2ed9d41c1921"
        },
        "districtUUID" : {
          "href" : "f5cd03e0-2657-4447-a4cd-76ecd50b7bb9"
        },
        "district" : {
          "href" : "/9718/district"
        },
        "facilityType" : {
          "href" : "/9718/facilityType"
        }
      }
    }, {
      "createdDate" : "2017-11-06T10:46:49.806+0000",
      "lastModifiedDate" : "2017-11-06T10:46:49.806+0000",
      "uuid" : "6ca7955a-2cbe-4419-8224-1b8eddbbd7fe",
      "inactive" : false,
      "name" : "Sullurpeta",
      "_links" : {
        "self" : {
          "href" : "/9719"
        },
        "facilityTypeUUID" : {
          "href" : "c24f8e2e-8d5f-4653-9a7b-0072ed416603"
        },
        "districtUUID" : {
          "href" : "f5cd03e0-2657-4447-a4cd-76ecd50b7bb9"
        },
        "district" : {
          "href" : "/9719/district"
        },
        "facilityType" : {
          "href" : "/9719/facilityType"
        }
      }
    }, {
      "createdDate" : "2017-11-06T10:46:50.192+0000",
      "lastModifiedDate" : "2017-11-06T10:46:50.192+0000",
      "uuid" : "0ef02fa3-90d9-4206-9be9-c43cd4d08428",
      "inactive" : false,
      "name" : "Bangarupeta",
      "_links" : {
        "self" : {
          "href" : "/9720"
        },
        "facilityTypeUUID" : {
          "href" : "ceff9b6e-c123-465b-a6da-2ed9d41c1921"
        },
        "districtUUID" : {
          "href" : "f5cd03e0-2657-4447-a4cd-76ecd50b7bb9"
        },
        "district" : {
          "href" : "/9720/district"
        },
        "facilityType" : {
          "href" : "/9720/facilityType"
        }
      }
    }, {
      "createdDate" : "2017-11-06T10:46:50.454+0000",
      "lastModifiedDate" : "2017-11-06T10:46:50.454+0000",
      "uuid" : "a80eff14-309a-4ce9-a3cd-7facb37b7f7b",
      "inactive" : false,
      "name" : "Kaligiri",
      "_links" : {
        "self" : {
          "href" : "/9721"
        },
        "facilityTypeUUID" : {
          "href" : "ceff9b6e-c123-465b-a6da-2ed9d41c1921"
        },
        "districtUUID" : {
          "href" : "f5cd03e0-2657-4447-a4cd-76ecd50b7bb9"
        },
        "district" : {
          "href" : "/9721/district"
        },
        "facilityType" : {
          "href" : "/9721/facilityType"
        }
      }
    } ]
  },
  "_links" : {
    "first" : {
      "href" : "/search/lastModifiedByState?lastModifiedDate=1900-01-01T00:00:00.001Z&name=Andhra%20Pradesh&page=0&size=200"
    },
    "prev" : {
      "href" : "/search/lastModifiedByState?lastModifiedDate=1900-01-01T00:00:00.001Z&name=Andhra%20Pradesh&page=7&size=200"
    },
    "self" : {
      "href" : "/search/lastModifiedByState?lastModifiedDate=1900-01-01T00:00:00.001Z&size=200&page=8&name=Andhra%20Pradesh"
    },
    "last" : {
      "href" : "/search/lastModifiedByState?lastModifiedDate=1900-01-01T00:00:00.001Z&name=Andhra%20Pradesh&page=8&size=200"
    }
  },
  "page" : {
    "size" : 200,
    "totalElements" : 1634,
    "totalPages" : 9,
    "number" : 8
  }
}